%YAML 1.1
%TAG !u! tag:unity3d.com,2011:
--- !u!1 &3476615522795895962
GameObject:
  m_ObjectHideFlags: 0
  m_CorrespondingSourceObject: {fileID: 0}
  m_PrefabInstance: {fileID: 0}
  m_PrefabAsset: {fileID: 0}
  serializedVersion: 6
  m_Component:
  - component: {fileID: 9208787931499487671}
  - component: {fileID: 1711734047896181762}
  - component: {fileID: 4352497081884807403}
  m_Layer: 31
  m_Name: Layer1
  m_TagString: Untagged
  m_Icon: {fileID: 0}
  m_NavMeshLayer: 0
  m_StaticEditorFlags: 0
  m_IsActive: 1
--- !u!4 &9208787931499487671
Transform:
  m_ObjectHideFlags: 0
  m_CorrespondingSourceObject: {fileID: 0}
  m_PrefabInstance: {fileID: 0}
  m_PrefabAsset: {fileID: 0}
  m_GameObject: {fileID: 3476615522795895962}
  m_LocalRotation: {x: -0, y: -0, z: -0, w: 1}
  m_LocalPosition: {x: 0, y: 0, z: 0}
  m_LocalScale: {x: 1, y: 1, z: 1}
  m_Children: []
  m_Father: {fileID: 7649557351649793413}
  m_RootOrder: 0
  m_LocalEulerAnglesHint: {x: 0, y: 0, z: 0}
--- !u!1839735485 &1711734047896181762
Tilemap:
  m_ObjectHideFlags: 0
  m_CorrespondingSourceObject: {fileID: 0}
  m_PrefabInstance: {fileID: 0}
  m_PrefabAsset: {fileID: 0}
  m_GameObject: {fileID: 3476615522795895962}
  m_Enabled: 1
  m_Tiles:
  - first: {x: -2, y: -16, z: 0}
    second:
      serializedVersion: 2
      m_TileIndex: 21
      m_TileSpriteIndex: 1
      m_TileMatrixIndex: 0
      m_TileColorIndex: 18
      m_TileObjectToInstantiateIndex: 65535
      m_AllTileFlags: 1073741825
  - first: {x: -2, y: -15, z: 0}
    second:
      serializedVersion: 2
      m_TileIndex: 20
      m_TileSpriteIndex: 2
      m_TileMatrixIndex: 0
      m_TileColorIndex: 17
      m_TileObjectToInstantiateIndex: 65535
      m_AllTileFlags: 1073741825
  - first: {x: -2, y: -14, z: 0}
    second:
      serializedVersion: 2
      m_TileIndex: 19
      m_TileSpriteIndex: 3
      m_TileMatrixIndex: 0
      m_TileColorIndex: 16
      m_TileObjectToInstantiateIndex: 65535
      m_AllTileFlags: 1073741825
  - first: {x: -2, y: -13, z: 0}
    second:
      serializedVersion: 2
      m_TileIndex: 18
      m_TileSpriteIndex: 4
      m_TileMatrixIndex: 0
      m_TileColorIndex: 15
      m_TileObjectToInstantiateIndex: 65535
      m_AllTileFlags: 1073741825
  - first: {x: -2, y: -12, z: 0}
    second:
      serializedVersion: 2
      m_TileIndex: 17
      m_TileSpriteIndex: 5
      m_TileMatrixIndex: 0
      m_TileColorIndex: 14
      m_TileObjectToInstantiateIndex: 65535
      m_AllTileFlags: 1073741825
  - first: {x: -2, y: -11, z: 0}
    second:
      serializedVersion: 2
      m_TileIndex: 16
      m_TileSpriteIndex: 6
      m_TileMatrixIndex: 0
      m_TileColorIndex: 0
      m_TileObjectToInstantiateIndex: 65535
      m_AllTileFlags: 1073741825
  - first: {x: -2, y: -10, z: 0}
    second:
      serializedVersion: 2
      m_TileIndex: 15
      m_TileSpriteIndex: 7
      m_TileMatrixIndex: 0
      m_TileColorIndex: 1
      m_TileObjectToInstantiateIndex: 65535
      m_AllTileFlags: 1073741825
  - first: {x: -2, y: -9, z: 0}
    second:
      serializedVersion: 2
      m_TileIndex: 14
      m_TileSpriteIndex: 8
      m_TileMatrixIndex: 0
      m_TileColorIndex: 2
      m_TileObjectToInstantiateIndex: 65535
      m_AllTileFlags: 1073741825
  - first: {x: -2, y: -8, z: 0}
    second:
      serializedVersion: 2
      m_TileIndex: 8
      m_TileSpriteIndex: 9
      m_TileMatrixIndex: 0
      m_TileColorIndex: 10
      m_TileObjectToInstantiateIndex: 65535
      m_AllTileFlags: 1073741825
  - first: {x: -2, y: -7, z: 0}
    second:
      serializedVersion: 2
      m_TileIndex: 9
      m_TileSpriteIndex: 10
      m_TileMatrixIndex: 0
      m_TileColorIndex: 9
      m_TileObjectToInstantiateIndex: 65535
      m_AllTileFlags: 1073741825
  - first: {x: -2, y: -6, z: 0}
    second:
      serializedVersion: 2
      m_TileIndex: 4
      m_TileSpriteIndex: 11
      m_TileMatrixIndex: 0
      m_TileColorIndex: 8
      m_TileObjectToInstantiateIndex: 65535
      m_AllTileFlags: 1073741825
  - first: {x: -2, y: -5, z: 0}
    second:
      serializedVersion: 2
      m_TileIndex: 5
      m_TileSpriteIndex: 12
      m_TileMatrixIndex: 0
      m_TileColorIndex: 3
      m_TileObjectToInstantiateIndex: 65535
      m_AllTileFlags: 1073741825
  - first: {x: -2, y: -4, z: 0}
    second:
      serializedVersion: 2
      m_TileIndex: 6
      m_TileSpriteIndex: 13
      m_TileMatrixIndex: 0
      m_TileColorIndex: 4
      m_TileObjectToInstantiateIndex: 65535
      m_AllTileFlags: 1073741825
  - first: {x: -2, y: -3, z: 0}
    second:
      serializedVersion: 2
      m_TileIndex: 7
      m_TileSpriteIndex: 14
      m_TileMatrixIndex: 0
      m_TileColorIndex: 5
      m_TileObjectToInstantiateIndex: 65535
      m_AllTileFlags: 1073741825
  - first: {x: -2, y: -2, z: 0}
    second:
      serializedVersion: 2
      m_TileIndex: 3
      m_TileSpriteIndex: 15
      m_TileMatrixIndex: 0
      m_TileColorIndex: 6
      m_TileObjectToInstantiateIndex: 65535
      m_AllTileFlags: 1073741825
  - first: {x: 5, y: -2, z: 0}
    second:
      serializedVersion: 2
      m_TileIndex: 13
      m_TileSpriteIndex: 0
      m_TileMatrixIndex: 0
      m_TileColorIndex: 21
      m_TileObjectToInstantiateIndex: 65535
      m_AllTileFlags: 1073741825
  - first: {x: -2, y: -1, z: 0}
    second:
      serializedVersion: 2
      m_TileIndex: 2
      m_TileSpriteIndex: 16
      m_TileMatrixIndex: 0
      m_TileColorIndex: 7
      m_TileObjectToInstantiateIndex: 65535
      m_AllTileFlags: 1073741825
  - first: {x: 5, y: -1, z: 0}
    second:
      serializedVersion: 2
      m_TileIndex: 12
      m_TileSpriteIndex: 0
      m_TileMatrixIndex: 0
      m_TileColorIndex: 20
      m_TileObjectToInstantiateIndex: 65535
      m_AllTileFlags: 1073741825
  - first: {x: -2, y: 0, z: 0}
    second:
      serializedVersion: 2
      m_TileIndex: 1
      m_TileSpriteIndex: 17
      m_TileMatrixIndex: 0
      m_TileColorIndex: 12
      m_TileObjectToInstantiateIndex: 65535
      m_AllTileFlags: 1073741825
  - first: {x: 5, y: 0, z: 0}
    second:
      serializedVersion: 2
      m_TileIndex: 11
      m_TileSpriteIndex: 0
      m_TileMatrixIndex: 0
      m_TileColorIndex: 19
      m_TileObjectToInstantiateIndex: 65535
      m_AllTileFlags: 1073741825
  - first: {x: -2, y: 1, z: 0}
    second:
      serializedVersion: 2
      m_TileIndex: 0
      m_TileSpriteIndex: 18
      m_TileMatrixIndex: 0
      m_TileColorIndex: 11
      m_TileObjectToInstantiateIndex: 65535
      m_AllTileFlags: 1073741825
  - first: {x: 1, y: 1, z: 0}
    second:
      serializedVersion: 2
      m_TileIndex: 22
      m_TileSpriteIndex: 19
      m_TileMatrixIndex: 0
      m_TileColorIndex: 22
      m_TileObjectToInstantiateIndex: 65535
      m_AllTileFlags: 1
  - first: {x: 2, y: 1, z: 0}
    second:
      serializedVersion: 2
      m_TileIndex: 22
      m_TileSpriteIndex: 19
      m_TileMatrixIndex: 0
      m_TileColorIndex: 22
      m_TileObjectToInstantiateIndex: 65535
      m_AllTileFlags: 1
  - first: {x: 3, y: 1, z: 0}
    second:
      serializedVersion: 2
      m_TileIndex: 22
      m_TileSpriteIndex: 19
      m_TileMatrixIndex: 0
      m_TileColorIndex: 22
      m_TileObjectToInstantiateIndex: 65535
      m_AllTileFlags: 1
  - first: {x: 5, y: 1, z: 0}
    second:
      serializedVersion: 2
      m_TileIndex: 10
      m_TileSpriteIndex: 0
      m_TileMatrixIndex: 0
      m_TileColorIndex: 13
      m_TileObjectToInstantiateIndex: 65535
      m_AllTileFlags: 1073741825
  - first: {x: 8, y: 1, z: 0}
    second:
      serializedVersion: 2
      m_TileIndex: 34
      m_TileSpriteIndex: 30
      m_TileMatrixIndex: 0
      m_TileColorIndex: 22
      m_TileObjectToInstantiateIndex: 65535
      m_AllTileFlags: 0
  - first: {x: 9, y: 1, z: 0}
    second:
      serializedVersion: 2
      m_TileIndex: 32
      m_TileSpriteIndex: 27
      m_TileMatrixIndex: 0
      m_TileColorIndex: 22
      m_TileObjectToInstantiateIndex: 65535
      m_AllTileFlags: 0
  - first: {x: 10, y: 1, z: 0}
    second:
      serializedVersion: 2
      m_TileIndex: 31
      m_TileSpriteIndex: 26
      m_TileMatrixIndex: 0
      m_TileColorIndex: 22
      m_TileObjectToInstantiateIndex: 65535
      m_AllTileFlags: 0
  - first: {x: 11, y: 1, z: 0}
    second:
      serializedVersion: 2
      m_TileIndex: 30
      m_TileSpriteIndex: 25
      m_TileMatrixIndex: 0
      m_TileColorIndex: 22
      m_TileObjectToInstantiateIndex: 65535
      m_AllTileFlags: 0
  - first: {x: 12, y: 1, z: 0}
    second:
      serializedVersion: 2
      m_TileIndex: 29
      m_TileSpriteIndex: 24
      m_TileMatrixIndex: 0
      m_TileColorIndex: 22
      m_TileObjectToInstantiateIndex: 65535
      m_AllTileFlags: 0
  - first: {x: 1, y: 2, z: 0}
    second:
      serializedVersion: 2
      m_TileIndex: 22
      m_TileSpriteIndex: 19
      m_TileMatrixIndex: 0
      m_TileColorIndex: 22
      m_TileObjectToInstantiateIndex: 65535
      m_AllTileFlags: 1
  - first: {x: 2, y: 2, z: 0}
    second:
      serializedVersion: 2
      m_TileIndex: 23
      m_TileSpriteIndex: 19
      m_TileMatrixIndex: 0
      m_TileColorIndex: 23
      m_TileObjectToInstantiateIndex: 65535
      m_AllTileFlags: 1
  - first: {x: 3, y: 2, z: 0}
    second:
      serializedVersion: 2
      m_TileIndex: 22
      m_TileSpriteIndex: 19
      m_TileMatrixIndex: 0
      m_TileColorIndex: 22
      m_TileObjectToInstantiateIndex: 65535
      m_AllTileFlags: 1
  - first: {x: 8, y: 2, z: 0}
    second:
      serializedVersion: 2
      m_TileIndex: 39
      m_TileSpriteIndex: 35
      m_TileMatrixIndex: 0
      m_TileColorIndex: 22
      m_TileObjectToInstantiateIndex: 65535
      m_AllTileFlags: 0
  - first: {x: 9, y: 2, z: 0}
    second:
      serializedVersion: 2
      m_TileIndex: 38
      m_TileSpriteIndex: 34
      m_TileMatrixIndex: 0
      m_TileColorIndex: 22
      m_TileObjectToInstantiateIndex: 65535
      m_AllTileFlags: 0
  - first: {x: 10, y: 2, z: 0}
    second:
      serializedVersion: 2
      m_TileIndex: 37
      m_TileSpriteIndex: 33
      m_TileMatrixIndex: 0
      m_TileColorIndex: 22
      m_TileObjectToInstantiateIndex: 65535
      m_AllTileFlags: 0
  - first: {x: 11, y: 2, z: 0}
    second:
      serializedVersion: 2
      m_TileIndex: 36
      m_TileSpriteIndex: 32
      m_TileMatrixIndex: 0
      m_TileColorIndex: 22
      m_TileObjectToInstantiateIndex: 65535
      m_AllTileFlags: 0
  - first: {x: 12, y: 2, z: 0}
    second:
      serializedVersion: 2
      m_TileIndex: 35
      m_TileSpriteIndex: 31
      m_TileMatrixIndex: 0
      m_TileColorIndex: 22
      m_TileObjectToInstantiateIndex: 65535
      m_AllTileFlags: 0
  - first: {x: 1, y: 3, z: 0}
    second:
      serializedVersion: 2
      m_TileIndex: 22
      m_TileSpriteIndex: 19
      m_TileMatrixIndex: 0
      m_TileColorIndex: 22
      m_TileObjectToInstantiateIndex: 65535
      m_AllTileFlags: 1
  - first: {x: 2, y: 3, z: 0}
    second:
      serializedVersion: 2
      m_TileIndex: 22
      m_TileSpriteIndex: 19
      m_TileMatrixIndex: 0
      m_TileColorIndex: 22
      m_TileObjectToInstantiateIndex: 65535
      m_AllTileFlags: 1
  - first: {x: 3, y: 3, z: 0}
    second:
      serializedVersion: 2
      m_TileIndex: 22
      m_TileSpriteIndex: 19
      m_TileMatrixIndex: 0
      m_TileColorIndex: 22
      m_TileObjectToInstantiateIndex: 65535
      m_AllTileFlags: 1
  - first: {x: 8, y: 3, z: 0}
    second:
      serializedVersion: 2
      m_TileIndex: 24
      m_TileSpriteIndex: 20
      m_TileMatrixIndex: 0
      m_TileColorIndex: 22
      m_TileObjectToInstantiateIndex: 65535
      m_AllTileFlags: 0
  - first: {x: 9, y: 3, z: 0}
    second:
      serializedVersion: 2
      m_TileIndex: 25
      m_TileSpriteIndex: 21
      m_TileMatrixIndex: 0
      m_TileColorIndex: 22
      m_TileObjectToInstantiateIndex: 65535
      m_AllTileFlags: 0
  - first: {x: 10, y: 3, z: 0}
    second:
      serializedVersion: 2
      m_TileIndex: 26
      m_TileSpriteIndex: 22
      m_TileMatrixIndex: 0
      m_TileColorIndex: 22
      m_TileObjectToInstantiateIndex: 65535
      m_AllTileFlags: 0
  - first: {x: 11, y: 3, z: 0}
    second:
      serializedVersion: 2
      m_TileIndex: 27
      m_TileSpriteIndex: 23
      m_TileMatrixIndex: 0
      m_TileColorIndex: 22
      m_TileObjectToInstantiateIndex: 65535
      m_AllTileFlags: 0
  - first: {x: 12, y: 3, z: 0}
    second:
      serializedVersion: 2
      m_TileIndex: 28
      m_TileSpriteIndex: 29
      m_TileMatrixIndex: 0
      m_TileColorIndex: 22
      m_TileObjectToInstantiateIndex: 65535
      m_AllTileFlags: 0
  - first: {x: 13, y: 3, z: 0}
    second:
      serializedVersion: 2
      m_TileIndex: 33
      m_TileSpriteIndex: 28
      m_TileMatrixIndex: 0
      m_TileColorIndex: 22
      m_TileObjectToInstantiateIndex: 65535
      m_AllTileFlags: 0
  m_AnimatedTiles:
  - first: {x: 8, y: 1, z: 0}
    second:
      m_AnimatedSprites:
      - {fileID: 8120534285627441609, guid: 5c2190ec8b4962b458be43208d1fc4fa, type: 3}
      - {fileID: -6019374628455998990, guid: 5c2190ec8b4962b458be43208d1fc4fa, type: 3}
      - {fileID: -7111736889061506127, guid: 5c2190ec8b4962b458be43208d1fc4fa, type: 3}
      - {fileID: -4584150901345180853, guid: 5c2190ec8b4962b458be43208d1fc4fa, type: 3}
      m_AnimationSpeed: 1
      m_AnimationTimeOffset: 0
      m_IsLooping: 1
  - first: {x: 9, y: 1, z: 0}
    second:
      m_AnimatedSprites:
      - {fileID: -3589659115550129828, guid: 5c2190ec8b4962b458be43208d1fc4fa, type: 3}
      - {fileID: 3719431647081307112, guid: 5c2190ec8b4962b458be43208d1fc4fa, type: 3}
      - {fileID: 4152377545605227591, guid: 5c2190ec8b4962b458be43208d1fc4fa, type: 3}
      - {fileID: 5578114330035809216, guid: 5c2190ec8b4962b458be43208d1fc4fa, type: 3}
      m_AnimationSpeed: 1
      m_AnimationTimeOffset: 0
      m_IsLooping: 1
  - first: {x: 10, y: 1, z: 0}
    second:
      m_AnimatedSprites:
      - {fileID: 4628331843056979386, guid: 5c2190ec8b4962b458be43208d1fc4fa, type: 3}
      - {fileID: 8444572471753928216, guid: 5c2190ec8b4962b458be43208d1fc4fa, type: 3}
      - {fileID: -1783365816862170646, guid: 5c2190ec8b4962b458be43208d1fc4fa, type: 3}
      - {fileID: 7885875614580787166, guid: 5c2190ec8b4962b458be43208d1fc4fa, type: 3}
      m_AnimationSpeed: 1
      m_AnimationTimeOffset: 0
      m_IsLooping: 1
  - first: {x: 11, y: 1, z: 0}
    second:
      m_AnimatedSprites:
      - {fileID: -1615949081974663805, guid: 5c2190ec8b4962b458be43208d1fc4fa, type: 3}
      - {fileID: -7171895969533384025, guid: 5c2190ec8b4962b458be43208d1fc4fa, type: 3}
      - {fileID: -8313438367898226907, guid: 5c2190ec8b4962b458be43208d1fc4fa, type: 3}
      - {fileID: -8264787359019280563, guid: 5c2190ec8b4962b458be43208d1fc4fa, type: 3}
      m_AnimationSpeed: 1
      m_AnimationTimeOffset: 0
      m_IsLooping: 1
  - first: {x: 12, y: 1, z: 0}
    second:
      m_AnimatedSprites:
      - {fileID: -909257385529428623, guid: 5c2190ec8b4962b458be43208d1fc4fa, type: 3}
      - {fileID: 6463117615973400526, guid: 5c2190ec8b4962b458be43208d1fc4fa, type: 3}
      - {fileID: -250765856118436293, guid: 5c2190ec8b4962b458be43208d1fc4fa, type: 3}
      - {fileID: 2143734238049294205, guid: 5c2190ec8b4962b458be43208d1fc4fa, type: 3}
      m_AnimationSpeed: 1
      m_AnimationTimeOffset: 0
      m_IsLooping: 1
  - first: {x: 8, y: 2, z: 0}
    second:
      m_AnimatedSprites:
      - {fileID: 8048296516308658261, guid: 5c2190ec8b4962b458be43208d1fc4fa, type: 3}
      - {fileID: 3660804336306149241, guid: 5c2190ec8b4962b458be43208d1fc4fa, type: 3}
      - {fileID: -1926288710469939529, guid: 5c2190ec8b4962b458be43208d1fc4fa, type: 3}
      - {fileID: 248920953851762269, guid: 5c2190ec8b4962b458be43208d1fc4fa, type: 3}
      m_AnimationSpeed: 1
      m_AnimationTimeOffset: 0
      m_IsLooping: 1
  - first: {x: 9, y: 2, z: 0}
    second:
      m_AnimatedSprites:
      - {fileID: -4107191748250341411, guid: 5c2190ec8b4962b458be43208d1fc4fa, type: 3}
      - {fileID: 2391137696966940939, guid: 5c2190ec8b4962b458be43208d1fc4fa, type: 3}
      - {fileID: 7530829950893969431, guid: 5c2190ec8b4962b458be43208d1fc4fa, type: 3}
      - {fileID: -8657844224126880088, guid: 5c2190ec8b4962b458be43208d1fc4fa, type: 3}
      m_AnimationSpeed: 1
      m_AnimationTimeOffset: 0
      m_IsLooping: 1
  - first: {x: 10, y: 2, z: 0}
    second:
      m_AnimatedSprites:
      - {fileID: 7938553543113079497, guid: 5c2190ec8b4962b458be43208d1fc4fa, type: 3}
      - {fileID: 1774602635281656590, guid: 5c2190ec8b4962b458be43208d1fc4fa, type: 3}
      - {fileID: -7247633323779962413, guid: 5c2190ec8b4962b458be43208d1fc4fa, type: 3}
      - {fileID: 4596160840694822166, guid: 5c2190ec8b4962b458be43208d1fc4fa, type: 3}
      m_AnimationSpeed: 1
      m_AnimationTimeOffset: 0
      m_IsLooping: 1
  - first: {x: 11, y: 2, z: 0}
    second:
      m_AnimatedSprites:
      - {fileID: -5763783351070195450, guid: 5c2190ec8b4962b458be43208d1fc4fa, type: 3}
      - {fileID: 2809703829381880904, guid: 5c2190ec8b4962b458be43208d1fc4fa, type: 3}
      - {fileID: 3408282497833403816, guid: 5c2190ec8b4962b458be43208d1fc4fa, type: 3}
      - {fileID: -4062655339635853708, guid: 5c2190ec8b4962b458be43208d1fc4fa, type: 3}
      m_AnimationSpeed: 1
      m_AnimationTimeOffset: 0
      m_IsLooping: 1
  - first: {x: 12, y: 2, z: 0}
    second:
      m_AnimatedSprites:
      - {fileID: 2843413888239666752, guid: 5c2190ec8b4962b458be43208d1fc4fa, type: 3}
      - {fileID: -8592481692398818744, guid: 5c2190ec8b4962b458be43208d1fc4fa, type: 3}
      - {fileID: 48860578802521686, guid: 5c2190ec8b4962b458be43208d1fc4fa, type: 3}
      - {fileID: 1638265275530371173, guid: 5c2190ec8b4962b458be43208d1fc4fa, type: 3}
      m_AnimationSpeed: 1
      m_AnimationTimeOffset: 0
      m_IsLooping: 1
  - first: {x: 8, y: 3, z: 0}
    second:
      m_AnimatedSprites:
      - {fileID: -5191224264329437111, guid: 5c2190ec8b4962b458be43208d1fc4fa, type: 3}
      - {fileID: 6672303802233673354, guid: 5c2190ec8b4962b458be43208d1fc4fa, type: 3}
      - {fileID: 8779103425224351531, guid: 5c2190ec8b4962b458be43208d1fc4fa, type: 3}
      - {fileID: 8686111905901740585, guid: 5c2190ec8b4962b458be43208d1fc4fa, type: 3}
      m_AnimationSpeed: 1
      m_AnimationTimeOffset: 0
      m_IsLooping: 1
  - first: {x: 9, y: 3, z: 0}
    second:
      m_AnimatedSprites:
      - {fileID: 3614436972644825826, guid: 5c2190ec8b4962b458be43208d1fc4fa, type: 3}
      - {fileID: -279134900118558475, guid: 5c2190ec8b4962b458be43208d1fc4fa, type: 3}
      - {fileID: 6216595731763826472, guid: 5c2190ec8b4962b458be43208d1fc4fa, type: 3}
      - {fileID: 3622685715148273299, guid: 5c2190ec8b4962b458be43208d1fc4fa, type: 3}
      m_AnimationSpeed: 1
      m_AnimationTimeOffset: 0
      m_IsLooping: 1
  - first: {x: 10, y: 3, z: 0}
    second:
      m_AnimatedSprites:
      - {fileID: -4246414751081055727, guid: 5c2190ec8b4962b458be43208d1fc4fa, type: 3}
      - {fileID: -5623926208079465527, guid: 5c2190ec8b4962b458be43208d1fc4fa, type: 3}
      - {fileID: -1003866361269154110, guid: 5c2190ec8b4962b458be43208d1fc4fa, type: 3}
      - {fileID: 3555970819945936586, guid: 5c2190ec8b4962b458be43208d1fc4fa, type: 3}
      m_AnimationSpeed: 1
      m_AnimationTimeOffset: 0
      m_IsLooping: 1
  - first: {x: 11, y: 3, z: 0}
    second:
      m_AnimatedSprites:
      - {fileID: 8865944072404985276, guid: 5c2190ec8b4962b458be43208d1fc4fa, type: 3}
      - {fileID: -4355372038542807236, guid: 5c2190ec8b4962b458be43208d1fc4fa, type: 3}
      - {fileID: 684908151858593010, guid: 5c2190ec8b4962b458be43208d1fc4fa, type: 3}
      - {fileID: -3225316222831220362, guid: 5c2190ec8b4962b458be43208d1fc4fa, type: 3}
      m_AnimationSpeed: 1
      m_AnimationTimeOffset: 0
      m_IsLooping: 1
  - first: {x: 12, y: 3, z: 0}
    second:
      m_AnimatedSprites:
      - {fileID: -6533273377282094417, guid: 5c2190ec8b4962b458be43208d1fc4fa, type: 3}
      - {fileID: 936083350002749265, guid: 5c2190ec8b4962b458be43208d1fc4fa, type: 3}
      - {fileID: 8530798819444331525, guid: 5c2190ec8b4962b458be43208d1fc4fa, type: 3}
      - {fileID: -8230814245059414729, guid: 5c2190ec8b4962b458be43208d1fc4fa, type: 3}
      m_AnimationSpeed: 1
      m_AnimationTimeOffset: 0
      m_IsLooping: 1
  - first: {x: 13, y: 3, z: 0}
    second:
      m_AnimatedSprites:
      - {fileID: -7507529248551775800, guid: 5c2190ec8b4962b458be43208d1fc4fa, type: 3}
      - {fileID: -4718659377576655045, guid: 5c2190ec8b4962b458be43208d1fc4fa, type: 3}
      - {fileID: -5779234408403176743, guid: 5c2190ec8b4962b458be43208d1fc4fa, type: 3}
      - {fileID: -5669642116109135714, guid: 5c2190ec8b4962b458be43208d1fc4fa, type: 3}
      m_AnimationSpeed: 1
      m_AnimationTimeOffset: 0
      m_IsLooping: 1
  m_TileAssetArray:
  - m_RefCount: 1
    m_Data: {fileID: 11400000, guid: 49aaf5c311a25ed419a10334a042d260, type: 2}
  - m_RefCount: 1
    m_Data: {fileID: 11400000, guid: 7f9ed1239eac5784d8589ab79c6f03fd, type: 2}
  - m_RefCount: 1
    m_Data: {fileID: 11400000, guid: fa27e48fe2026844abfef02b7cf0aa64, type: 2}
  - m_RefCount: 1
    m_Data: {fileID: 11400000, guid: 9ad2b0917c36269468b929e7d8d32c53, type: 2}
  - m_RefCount: 1
    m_Data: {fileID: 11400000, guid: 2dc1a58c6f16e714b898dd6f2fd3322e, type: 2}
  - m_RefCount: 1
    m_Data: {fileID: 11400000, guid: a7360ea136d213347982e1b67a28b065, type: 2}
  - m_RefCount: 1
    m_Data: {fileID: 11400000, guid: 6ab5e540a243f224db1f38b69dd54b94, type: 2}
  - m_RefCount: 1
    m_Data: {fileID: 11400000, guid: 9d73c48066f80964fb0848885ae7b271, type: 2}
  - m_RefCount: 1
    m_Data: {fileID: 11400000, guid: 7229389d359f8814d9c10bfc56e33edf, type: 2}
  - m_RefCount: 1
    m_Data: {fileID: 11400000, guid: 3d3435e4863ebf243a52ae0744c078db, type: 2}
  - m_RefCount: 1
    m_Data: {fileID: 11400000, guid: 6d2cd216317b03040a826dadf8399479, type: 2}
  - m_RefCount: 1
    m_Data: {fileID: 11400000, guid: dea7d2dfb1d9ca24b8d1f6bc5c18ecdb, type: 2}
  - m_RefCount: 1
    m_Data: {fileID: 11400000, guid: 15551267f8d51dc46be8ee806e5162d5, type: 2}
  - m_RefCount: 1
    m_Data: {fileID: 11400000, guid: 288b8229d1866244594e56f28b688e89, type: 2}
  - m_RefCount: 1
    m_Data: {fileID: 11400000, guid: 94a93c9068771144fa46be4a010bcc6c, type: 2}
  - m_RefCount: 1
    m_Data: {fileID: 11400000, guid: 4c6f7045efbe6f543a311c4cae4c0776, type: 2}
  - m_RefCount: 1
    m_Data: {fileID: 11400000, guid: 3326f90cc7d07ad43b78982f63f68da6, type: 2}
  - m_RefCount: 1
    m_Data: {fileID: 11400000, guid: 7a2b33ae3b17ca24ba2d1593fbb1339e, type: 2}
  - m_RefCount: 1
    m_Data: {fileID: 11400000, guid: c7ed81befe4ddd241939d347e953c298, type: 2}
  - m_RefCount: 1
    m_Data: {fileID: 11400000, guid: c347e1569f9aa5b4e9557da15d8243f6, type: 2}
  - m_RefCount: 1
    m_Data: {fileID: 11400000, guid: 0a68f8aab0b5b8a47a079f9d318f95ed, type: 2}
  - m_RefCount: 1
    m_Data: {fileID: 11400000, guid: 23f149af390231e46ba11548188299de, type: 2}
  - m_RefCount: 8
    m_Data: {fileID: 11400000, guid: f3865bc10f372d247acc4e4b3d27fbd4, type: 2}
  - m_RefCount: 1
    m_Data: {fileID: 11400000, guid: 6770d82dbc34c894eb30ee1fd5b3b937, type: 2}
  - m_RefCount: 1
    m_Data: {fileID: 11400000, guid: b66030e6e8e7a6248a3b5e2d86305d45, type: 2}
  - m_RefCount: 1
    m_Data: {fileID: 11400000, guid: 6716490b110a9cf46a81dc3da1597b02, type: 2}
  - m_RefCount: 1
    m_Data: {fileID: 11400000, guid: 4a1dd2bc4273bb24792e06294a11cb5b, type: 2}
  - m_RefCount: 1
    m_Data: {fileID: 11400000, guid: 7a14631c433893340a385df79cd13769, type: 2}
  - m_RefCount: 1
    m_Data: {fileID: 11400000, guid: 02a01228c2b5b2640a9f564db7aed1be, type: 2}
  - m_RefCount: 1
    m_Data: {fileID: 11400000, guid: 308f8ae143a003044897fd7cec43bdf1, type: 2}
  - m_RefCount: 1
    m_Data: {fileID: 11400000, guid: 3c94c2e3f90e1034fb4438761a8cad28, type: 2}
  - m_RefCount: 1
    m_Data: {fileID: 11400000, guid: ebd8b1ee29b38fe439641e17589e08e2, type: 2}
  - m_RefCount: 1
    m_Data: {fileID: 11400000, guid: 7ca4526466e757542892ac68a26286fd, type: 2}
  - m_RefCount: 1
    m_Data: {fileID: 11400000, guid: 9f778eaf3fb0cdc4582907ada4403573, type: 2}
  - m_RefCount: 1
    m_Data: {fileID: 11400000, guid: ef3b7e8f913912d46a504c94a434bdcb, type: 2}
  - m_RefCount: 1
    m_Data: {fileID: 11400000, guid: d9a2fde995f5a914886ab4f0e2ff6df1, type: 2}
  - m_RefCount: 1
    m_Data: {fileID: 11400000, guid: f560086508fb95c4ba50b84273b0493a, type: 2}
  - m_RefCount: 1
    m_Data: {fileID: 11400000, guid: e68f9b0218c6d664994e0d285265164c, type: 2}
  - m_RefCount: 1
    m_Data: {fileID: 11400000, guid: 603d682b603f15a469722b0610bb288d, type: 2}
  - m_RefCount: 1
    m_Data: {fileID: 11400000, guid: 3f7bc31cd2291344f8191cfbd8daef23, type: 2}
  m_TileSpriteArray:
  - m_RefCount: 4
    m_Data: {fileID: 21300000, guid: 7fc243b6269186e4092801c7fdb12c32, type: 3}
  - m_RefCount: 1
    m_Data: {fileID: 21300000, guid: 3e28bdf9b71f1ae45a4cebbe9d0a2bb2, type: 3}
  - m_RefCount: 1
    m_Data: {fileID: 21300000, guid: af196a49181fa3b4f9ee1a0686e8e31f, type: 3}
  - m_RefCount: 1
    m_Data: {fileID: 21300000, guid: 48323f014d945674986f9c88c3bf8685, type: 3}
  - m_RefCount: 1
    m_Data: {fileID: 21300000, guid: f7bb333e72df0284a9857479f0ff91a2, type: 3}
  - m_RefCount: 1
    m_Data: {fileID: 21300000, guid: fcf73e2c1d341bb44ab174f2f9591bef, type: 3}
  - m_RefCount: 1
    m_Data: {fileID: 21300000, guid: 8598bed4f9d98e14b9fee73cd27bada1, type: 3}
  - m_RefCount: 1
    m_Data: {fileID: 21300000, guid: b86326b9ea2434e49ae521a3f4796f45, type: 3}
  - m_RefCount: 1
    m_Data: {fileID: 21300000, guid: b260b20f07906704da207b70e841fb9c, type: 3}
  - m_RefCount: 1
    m_Data: {fileID: 21300000, guid: b1b8f0607a0a6724e9ee2ab1e7d34e24, type: 3}
  - m_RefCount: 1
    m_Data: {fileID: 21300000, guid: 84f02d7d9241d0846923a95e246e2f3a, type: 3}
  - m_RefCount: 1
    m_Data: {fileID: 21300000, guid: a321d80bf1aade244b89d9070684bd8a, type: 3}
  - m_RefCount: 1
    m_Data: {fileID: 21300000, guid: 19a7533bb466a0f488dbae6734320be5, type: 3}
  - m_RefCount: 1
    m_Data: {fileID: 21300000, guid: 585dac9f2ed8ccf41bd6b2a6cd6251c6, type: 3}
  - m_RefCount: 1
    m_Data: {fileID: 21300000, guid: 553b03f9f1cf5b64994292cbb2126b4b, type: 3}
  - m_RefCount: 1
    m_Data: {fileID: 21300000, guid: b8248b4b720b28d42bd28a59315571f0, type: 3}
  - m_RefCount: 1
    m_Data: {fileID: 21300000, guid: debf9119003c13d4bb3ce79b0683f604, type: 3}
  - m_RefCount: 1
    m_Data: {fileID: 21300000, guid: 681a2dbc2bf1b62498d38ea4988f2466, type: 3}
  - m_RefCount: 1
    m_Data: {fileID: 21300000, guid: 99eed4c24bab5fd49aa85e0c9a1f0abd, type: 3}
  - m_RefCount: 9
    m_Data: {fileID: 21300000, guid: 631f8cd7ad888174daeb904ad5de8def, type: 3}
  - m_RefCount: 1
    m_Data: {fileID: 8686111905901740585, guid: 5c2190ec8b4962b458be43208d1fc4fa,
      type: 3}
  - m_RefCount: 1
    m_Data: {fileID: 3622685715148273299, guid: 5c2190ec8b4962b458be43208d1fc4fa,
      type: 3}
  - m_RefCount: 1
    m_Data: {fileID: 3555970819945936586, guid: 5c2190ec8b4962b458be43208d1fc4fa,
      type: 3}
  - m_RefCount: 1
    m_Data: {fileID: -3225316222831220362, guid: 5c2190ec8b4962b458be43208d1fc4fa,
      type: 3}
  - m_RefCount: 1
    m_Data: {fileID: 2143734238049294205, guid: 5c2190ec8b4962b458be43208d1fc4fa,
      type: 3}
  - m_RefCount: 1
    m_Data: {fileID: -8264787359019280563, guid: 5c2190ec8b4962b458be43208d1fc4fa,
      type: 3}
  - m_RefCount: 1
    m_Data: {fileID: 7885875614580787166, guid: 5c2190ec8b4962b458be43208d1fc4fa,
      type: 3}
  - m_RefCount: 1
    m_Data: {fileID: 5578114330035809216, guid: 5c2190ec8b4962b458be43208d1fc4fa,
      type: 3}
  - m_RefCount: 1
    m_Data: {fileID: -5669642116109135714, guid: 5c2190ec8b4962b458be43208d1fc4fa,
      type: 3}
  - m_RefCount: 1
    m_Data: {fileID: -8230814245059414729, guid: 5c2190ec8b4962b458be43208d1fc4fa,
      type: 3}
  - m_RefCount: 1
    m_Data: {fileID: -4584150901345180853, guid: 5c2190ec8b4962b458be43208d1fc4fa,
      type: 3}
  - m_RefCount: 1
    m_Data: {fileID: 1638265275530371173, guid: 5c2190ec8b4962b458be43208d1fc4fa,
      type: 3}
  - m_RefCount: 1
    m_Data: {fileID: -4062655339635853708, guid: 5c2190ec8b4962b458be43208d1fc4fa,
      type: 3}
  - m_RefCount: 1
    m_Data: {fileID: 4596160840694822166, guid: 5c2190ec8b4962b458be43208d1fc4fa,
      type: 3}
  - m_RefCount: 1
    m_Data: {fileID: -8657844224126880088, guid: 5c2190ec8b4962b458be43208d1fc4fa,
      type: 3}
  - m_RefCount: 1
    m_Data: {fileID: 248920953851762269, guid: 5c2190ec8b4962b458be43208d1fc4fa, type: 3}
  m_TileMatrixArray:
  - m_RefCount: 47
    m_Data:
      e00: 1
      e01: 0
      e02: 0
      e03: 0
      e10: 0
      e11: 1
      e12: 0
      e13: 0
      e20: 0
      e21: 0
      e22: 1
      e23: 0
      e30: 0
      e31: 0
      e32: 0
      e33: 1
  m_TileColorArray:
  - m_RefCount: 1
    m_Data: {r: 0.32300568, g: 0, b: 1, a: 1}
  - m_RefCount: 1
    m_Data: {r: 0.554389, g: 0, b: 1, a: 1}
  - m_RefCount: 1
    m_Data: {r: 0.74685574, g: 0, b: 1, a: 1}
  - m_RefCount: 1
    m_Data: {r: 1, g: 0, b: 0.038024426, a: 1}
  - m_RefCount: 1
    m_Data: {r: 1, g: 0.30057162, b: 0, a: 1}
  - m_RefCount: 1
    m_Data: {r: 1, g: 0.5589785, b: 0, a: 1}
  - m_RefCount: 1
    m_Data: {r: 1, g: 0.8353392, b: 0, a: 1}
  - m_RefCount: 1
    m_Data: {r: 0.968729, g: 1, b: 0, a: 1}
  - m_RefCount: 1
    m_Data: {r: 1, g: 0, b: 0.3793106, a: 1}
  - m_RefCount: 1
    m_Data: {r: 1, g: 0, b: 0.6664481, a: 1}
  - m_RefCount: 1
    m_Data: {r: 0.9118862, g: 0, b: 1, a: 1}
  - m_RefCount: 1
    m_Data: {r: 0, g: 1, b: 0.062502384, a: 1}
  - m_RefCount: 1
    m_Data: {r: 0.73842585, g: 1, b: 0, a: 1}
  - m_RefCount: 1
    m_Data: {r: 0.9602332, g: 0.68235296, b: 1, a: 1}
  - m_RefCount: 1
    m_Data: {r: 0, g: 0.3140161, b: 1, a: 1}
  - m_RefCount: 1
    m_Data: {r: 0, g: 0.5343189, b: 1, a: 1}
  - m_RefCount: 1
    m_Data: {r: 0, g: 0.78515863, b: 1, a: 1}
  - m_RefCount: 1
    m_Data: {r: 0, g: 0.9529977, b: 1, a: 1}
  - m_RefCount: 1
    m_Data: {r: 0, g: 1, b: 0.80679727, a: 1}
  - m_RefCount: 1
    m_Data: {r: 1, g: 0.73069435, b: 0.6839622, a: 1}
  - m_RefCount: 1
    m_Data: {r: 0.68235296, g: 0.9087727, b: 1, a: 1}
  - m_RefCount: 1
    m_Data: {r: 0.8887581, g: 1, b: 0.68235296, a: 1}
  - m_RefCount: 24
    m_Data: {r: 1, g: 1, b: 1, a: 1}
  - m_RefCount: 1
    m_Data: {r: 1, g: 1, b: 1, a: 0}
  m_TileObjectToInstantiateArray: []
  m_AnimationFrameRate: 1
  m_Color: {r: 1, g: 1, b: 1, a: 1}
  m_Origin: {x: -2, y: -16, z: 0}
  m_Size: {x: 26, y: 20, z: 1}
  m_TileAnchor: {x: 0.5, y: 0.5, z: 0}
  m_TileOrientation: 0
  m_TileOrientationMatrix:
    e00: 1
    e01: 0
    e02: 0
    e03: 0
    e10: 0
    e11: 1
    e12: 0
    e13: 0
    e20: 0
    e21: 0
    e22: 1
    e23: 0
    e30: 0
    e31: 0
    e32: 0
    e33: 1
--- !u!483693784 &4352497081884807403
TilemapRenderer:
  m_ObjectHideFlags: 0
  m_CorrespondingSourceObject: {fileID: 0}
  m_PrefabInstance: {fileID: 0}
  m_PrefabAsset: {fileID: 0}
  m_GameObject: {fileID: 3476615522795895962}
  m_Enabled: 0
  m_CastShadows: 0
  m_ReceiveShadows: 0
  m_DynamicOccludee: 0
  m_MotionVectors: 1
  m_LightProbeUsage: 0
  m_ReflectionProbeUsage: 0
  m_RayTracingMode: 0
  m_RenderingLayerMask: 1
  m_RendererPriority: 0
  m_Materials:
  - {fileID: 10754, guid: 0000000000000000f000000000000000, type: 0}
  m_StaticBatchInfo:
    firstSubMesh: 0
    subMeshCount: 0
  m_StaticBatchRoot: {fileID: 0}
  m_ProbeAnchor: {fileID: 0}
  m_LightProbeVolumeOverride: {fileID: 0}
  m_ScaleInLightmap: 1
  m_ReceiveGI: 1
  m_PreserveUVs: 0
  m_IgnoreNormalsForChartDetection: 0
  m_ImportantGI: 0
  m_StitchLightmapSeams: 1
  m_SelectedEditorRenderState: 0
  m_MinimumChartSize: 4
  m_AutoUVMaxDistance: 0.5
  m_AutoUVMaxAngle: 89
  m_LightmapParameters: {fileID: 0}
  m_SortingLayerID: 0
  m_SortingLayer: 0
  m_SortingOrder: 0
  m_ChunkSize: {x: 32, y: 32, z: 32}
  m_ChunkCullingBounds: {x: 0, y: 0, z: 0}
  m_MaxChunkCount: 16
  m_MaxFrameAge: 16
  m_SortOrder: 0
  m_Mode: 0
  m_DetectChunkCullingBounds: 0
  m_MaskInteraction: 0
--- !u!1 &9220145743610903874
GameObject:
  m_ObjectHideFlags: 0
  m_CorrespondingSourceObject: {fileID: 0}
  m_PrefabInstance: {fileID: 0}
  m_PrefabAsset: {fileID: 0}
  serializedVersion: 6
  m_Component:
  - component: {fileID: 7649557351649793413}
  - component: {fileID: 104390220044540123}
  m_Layer: 31
  m_Name: Technical palette
  m_TagString: Untagged
  m_Icon: {fileID: 0}
  m_NavMeshLayer: 0
  m_StaticEditorFlags: 0
  m_IsActive: 1
--- !u!4 &7649557351649793413
Transform:
  m_ObjectHideFlags: 0
  m_CorrespondingSourceObject: {fileID: 0}
  m_PrefabInstance: {fileID: 0}
  m_PrefabAsset: {fileID: 0}
  m_GameObject: {fileID: 9220145743610903874}
  m_LocalRotation: {x: 0, y: 0, z: 0, w: 1}
  m_LocalPosition: {x: 0, y: 0, z: 0}
  m_LocalScale: {x: 1, y: 1, z: 1}
  m_Children:
  - {fileID: 9208787931499487671}
  m_Father: {fileID: 0}
  m_RootOrder: 0
  m_LocalEulerAnglesHint: {x: 0, y: 0, z: 0}
--- !u!156049354 &104390220044540123
Grid:
  m_ObjectHideFlags: 0
  m_CorrespondingSourceObject: {fileID: 0}
  m_PrefabInstance: {fileID: 0}
  m_PrefabAsset: {fileID: 0}
  m_GameObject: {fileID: 9220145743610903874}
  m_Enabled: 1
  m_CellSize: {x: 1, y: 1, z: 0}
  m_CellGap: {x: 0, y: 0, z: 0}
  m_CellLayout: 0
  m_CellSwizzle: 0
--- !u!114 &2615391103304824659
MonoBehaviour:
  m_ObjectHideFlags: 0
  m_CorrespondingSourceObject: {fileID: 0}
  m_PrefabInstance: {fileID: 0}
  m_PrefabAsset: {fileID: 0}
  m_GameObject: {fileID: 0}
  m_Enabled: 1
  m_EditorHideFlags: 0
  m_Script: {fileID: 12395, guid: 0000000000000000e000000000000000, type: 0}
  m_Name: Palette Settings
  m_EditorClassIdentifier: 
  cellSizing: 0
