%YAML 1.1
%TAG !u! tag:unity3d.com,2011:
--- !u!114 &11400000
MonoBehaviour:
  m_ObjectHideFlags: 0
  m_CorrespondingSourceObject: {fileID: 0}
  m_PrefabInstance: {fileID: 0}
  m_PrefabAsset: {fileID: 0}
  m_GameObject: {fileID: 0}
  m_Enabled: 1
  m_EditorHideFlags: 0
  m_Script: {fileID: 11500000, guid: 0886f0a5f4d4ac646b12c0bb78a3f62a, type: 3}
  m_Name: Forest Sea Minimap Preset
  m_EditorClassIdentifier: 
  _minimapsPath: /Sprites/Minimaps/
  imagePrefixName: 
  imageSuffixName: 
  _textureSize: {x: 64, y: 64}
  useBackground: 0
  backgroundColor: {r: 0, g: 0, b: 0, a: 0}
  useOutline: 0
  outlineColor: {r: 0, g: 0, b: 0, a: 0}
  specialType: 0
  specialTypeAreaKey: 
  _tileLayer: []
  _tileIconLayers:
  - iconLayerName: TreasureSite
    spriteIcon: {fileID: 21300000, guid: 1ec5e23a10db6ec4f9dfa6b3f9a89d5b, type: 3}
    altIcons: []
    offset: {x: -3, y: -2}
    usePrefab: 0
    useAreaEffector2D: 0
    useCollider2D: 0
    isSubLayer: 0
    subLayerSpriteSuffixNames: []
    subLayerSprites: []
    limitSpawnCount: 0
    spawnGridSize: {x: 0, y: 0}
    minDistanceManhattan: 0
    minGlobalDistanceManhattan: 0
  baseLandColor: {r: 0.35686275, g: 0.6627451, b: 0.4039216, a: 1}
  landBorderColor: {r: 0.43921572, g: 0.7137255, b: 0.3803922, a: 1}
  landOutlineColor: {r: 0.35686275, g: 0.20000002, b: 0.29411766, a: 1}
  landCliffLowerColor: {r: 0.48627454, g: 0.2509804, b: 0.3137255, a: 1}
  landCliffUpperColor: {r: 0.5647059, g: 0.31764707, b: 0.33333334, a: 1}
  waterColor: {r: 0.23529413, g: 0.43137258, b: 0.7568628, a: 1}
  waterBorderColor: {r: 0.2392157, g: 0.54509807, b: 0.8431373, a: 1}
  deeper1WaterColor: {r: 0.24313727, g: 0.38823533, b: 0.62352943, a: 1}
  deeper2WaterColor: {r: 0.22454545, g: 0.33799994, b: 0.52, a: 1}
  waterfallColor: {r: 0.37254903, g: 0.67058825, b: 0.89019614, a: 1}
  pathwayColor: {r: 0.7176471, g: 0.6627451, b: 0.6039216, a: 1}
  pathwayBorderColor: {r: 0.48235297, g: 0.47058827, b: 0.49803925, a: 1}
  mountainIcon:
    iconLayerName: Mountain
    spriteIcon: {fileID: 21300000, guid: e65c6cf1a4f75e64988bff6c22b86ae0, type: 3}
    altIcons: []
    offset: {x: -3, y: -1}
    usePrefab: 1
    useAreaEffector2D: 0
    useCollider2D: 0
    isSubLayer: 0
    subLayerSpriteSuffixNames: []
    subLayerSprites: []
    limitSpawnCount: 1
    spawnGridSize: {x: 2, y: 2}
    minDistanceManhattan: 12
    minGlobalDistanceManhattan: 4
  dockNorthIcon:
    iconLayerName: port
    spriteIcon: {fileID: 21300000, guid: 31f9901688909ac4a95555cb2a72b7f4, type: 3}
    altIcons: []
    offset: {x: -2, y: 0}
    usePrefab: 0
    useAreaEffector2D: 0
    useCollider2D: 0
    isSubLayer: 0
    subLayerSpriteSuffixNames: []
    subLayerSprites: []
    limitSpawnCount: 0
    spawnGridSize: {x: 2, y: 2}
    minDistanceManhattan: 12
    minGlobalDistanceManhattan: 4
  dockSouthIcon:
    iconLayerName: port
    spriteIcon: {fileID: 21300000, guid: 119e35a71fd727f40bbaf8babfc94b68, type: 3}
    altIcons: []
    offset: {x: -2, y: -4}
    usePrefab: 0
    useAreaEffector2D: 0
    useCollider2D: 0
    isSubLayer: 0
    subLayerSpriteSuffixNames: []
    subLayerSprites: []
    limitSpawnCount: 0
    spawnGridSize: {x: 2, y: 2}
    minDistanceManhattan: 12
    minGlobalDistanceManhattan: 4
  dockEastIcon:
    iconLayerName: port
    spriteIcon: {fileID: 21300000, guid: e363d135dd68ae940bc0b5ba4cc52d98, type: 3}
    altIcons: []
    offset: {x: 0, y: -1}
    usePrefab: 0
    useAreaEffector2D: 0
    useCollider2D: 0
    isSubLayer: 0
    subLayerSpriteSuffixNames: []
    subLayerSprites: []
    limitSpawnCount: 0
    spawnGridSize: {x: 2, y: 2}
    minDistanceManhattan: 12
    minGlobalDistanceManhattan: 4
  dockWestIcon:
    iconLayerName: port
    spriteIcon: {fileID: 21300000, guid: 67aa5e44546a51144b877a7b94d67333, type: 3}
    altIcons: []
    offset: {x: -4, y: -1}
    usePrefab: 0
    useAreaEffector2D: 0
    useCollider2D: 0
    isSubLayer: 0
    subLayerSpriteSuffixNames: []
    subLayerSprites: []
    limitSpawnCount: 0
    spawnGridSize: {x: 2, y: 2}
    minDistanceManhattan: 12
    minGlobalDistanceManhattan: 4
  houseIcon:
    iconLayerName: bulding
    spriteIcon: {fileID: 21300000, guid: b7f06e8e0acbac745ac8b22d336e1df0, type: 3}
    altIcons:
    - {fileID: 21300000, guid: 3b79b9e77efdca449bac9df5f8a469fc, type: 3}
    - {fileID: 21300000, guid: 202422a563f2e754ba0d628ea075429e, type: 3}
    offset: {x: -2, y: 0}
    usePrefab: 0
    useAreaEffector2D: 0
    useCollider2D: 0
    isSubLayer: 0
    subLayerSpriteSuffixNames: []
    subLayerSprites: []
    limitSpawnCount: 1
    spawnGridSize: {x: 2, y: 2}
    minDistanceManhattan: 12
    minGlobalDistanceManhattan: 4
  tree1Icon:
    iconLayerName: Tree Sea 1
    spriteIcon: {fileID: 21300000, guid: f9b01194aa3421a40a90bd63ebf01a80, type: 3}
    altIcons: []
    offset: {x: -3, y: -1}
    usePrefab: 1
    useAreaEffector2D: 0
    useCollider2D: 0
    isSubLayer: 0
    subLayerSpriteSuffixNames: []
    subLayerSprites: []
    limitSpawnCount: 1
    spawnGridSize: {x: 2, y: 2}
    minDistanceManhattan: 12
    minGlobalDistanceManhattan: 4
  tree2Icon:
    iconLayerName: Tree Sea 2
    spriteIcon: {fileID: 21300000, guid: f15c94c83e56de1468684ca5978c2d41, type: 3}
    altIcons: []
    offset: {x: -3, y: -1}
    usePrefab: 1
    useAreaEffector2D: 0
    useCollider2D: 0
    isSubLayer: 0
    subLayerSpriteSuffixNames: []
    subLayerSprites: []
    limitSpawnCount: 1
    spawnGridSize: {x: 2, y: 2}
    minDistanceManhattan: 12
    minGlobalDistanceManhattan: 4
