%YAML 1.1
%TAG !u! tag:unity3d.com,2011:
--- !u!1 &8612891978963320914
GameObject:
  m_ObjectHideFlags: 0
  m_CorrespondingSourceObject: {fileID: 0}
  m_PrefabInstance: {fileID: 0}
  m_PrefabAsset: {fileID: 0}
  serializedVersion: 6
  m_Component:
  - component: {fileID: 5996277594548989515}
  - component: {fileID: 2145884707352803168}
  - component: {fileID: 8914369610133269050}
  - component: {fileID: 210412077248137537}
  m_Layer: 0
  m_Name: Ship Health Block
  m_TagString: Untagged
  m_Icon: {fileID: 0}
  m_NavMeshLayer: 0
  m_StaticEditorFlags: 0
  m_IsActive: 1
--- !u!224 &5996277594548989515
RectTransform:
  m_ObjectHideFlags: 0
  m_CorrespondingSourceObject: {fileID: 0}
  m_PrefabInstance: {fileID: 0}
  m_PrefabAsset: {fileID: 0}
  m_GameObject: {fileID: 8612891978963320914}
  m_LocalRotation: {x: 0, y: 0, z: 0, w: 1}
  m_LocalPosition: {x: 0, y: 0, z: 0}
  m_LocalScale: {x: 1, y: 1, z: 1}
  m_Children: []
  m_Father: {fileID: 0}
  m_RootOrder: 0
  m_LocalEulerAnglesHint: {x: 0, y: 0, z: 0}
  m_AnchorMin: {x: 0, y: 0}
  m_AnchorMax: {x: 0, y: 0}
  m_AnchoredPosition: {x: 0, y: 0}
  m_SizeDelta: {x: 5.6, y: 4}
  m_Pivot: {x: 0.5, y: 0.5}
--- !u!222 &2145884707352803168
CanvasRenderer:
  m_ObjectHideFlags: 0
  m_CorrespondingSourceObject: {fileID: 0}
  m_PrefabInstance: {fileID: 0}
  m_PrefabAsset: {fileID: 0}
  m_GameObject: {fileID: 8612891978963320914}
  m_CullTransparentMesh: 0
--- !u!114 &8914369610133269050
MonoBehaviour:
  m_ObjectHideFlags: 0
  m_CorrespondingSourceObject: {fileID: 0}
  m_PrefabInstance: {fileID: 0}
  m_PrefabAsset: {fileID: 0}
  m_GameObject: {fileID: 8612891978963320914}
  m_Enabled: 1
  m_EditorHideFlags: 0
  m_Script: {fileID: 11500000, guid: fe87c0e1cc204ed48ad3b37840f39efc, type: 3}
  m_Name: 
  m_EditorClassIdentifier: 
  m_Material: {fileID: 0}
  m_Color: {r: 0.3137255, g: 0.95686275, b: 0.14509805, a: 1}
  m_RaycastTarget: 1
  m_Maskable: 1
  m_OnCullStateChanged:
    m_PersistentCalls:
      m_Calls: []
  m_Sprite: {fileID: 21300000, guid: ab4a59f6ba58a134f90ffc7e138e9dc6, type: 3}
  m_Type: 1
  m_PreserveAspect: 0
  m_FillCenter: 1
  m_FillMethod: 4
  m_FillAmount: 1
  m_FillClockwise: 1
  m_FillOrigin: 0
  m_UseSpriteMesh: 0
  m_PixelsPerUnitMultiplier: 1
--- !u!114 &210412077248137537
MonoBehaviour:
  m_ObjectHideFlags: 0
  m_CorrespondingSourceObject: {fileID: 0}
  m_PrefabInstance: {fileID: 0}
  m_PrefabAsset: {fileID: 0}
  m_GameObject: {fileID: 8612891978963320914}
  m_Enabled: 1
  m_EditorHideFlags: 0
  m_Script: {fileID: 11500000, guid: 4c3111c8f6526a24e9b230d1d8a6071d, type: 3}
  m_Name: 
  m_EditorClassIdentifier: 
  image: {fileID: 8914369610133269050}
  tierColors:
  - {r: 0.30980393, g: 0.94509804, b: 0.14509805, a: 1}
  - {r: 0.21960784, g: 0.76862746, b: 0.07450981, a: 1}
  - {r: 0.1254902, g: 0.5882353, b: 0.003921569, a: 1}
  enemyTierColors:
  - {r: 0.9882353, g: 0.20392157, b: 0.2, a: 1}
  - {r: 0.84705883, g: 0.101960786, b: 0.09803922, a: 1}
  - {r: 0.6792453, g: 0.090652674, b: 0.086507656, a: 1}
