%YAML 1.1
%TAG !u! tag:unity3d.com,2011:
--- !u!58 &8241000922399890279
CircleCollider2D:
  m_ObjectHideFlags: 0
  m_CorrespondingSourceObject: {fileID: 0}
  m_PrefabInstance: {fileID: 0}
  m_PrefabAsset: {fileID: 0}
  m_GameObject: {fileID: 7553695573505911380}
  m_Enabled: 1
  m_Density: 1
  m_Material: {fileID: 0}
  m_IsTrigger: 0
  m_UsedByEffector: 0
  m_UsedByComposite: 0
  m_Offset: {x: 0, y: 0}
  serializedVersion: 2
  m_Radius: 0.16
--- !u!114 &-8923885535339926285
MonoBehaviour:
  m_ObjectHideFlags: 0
  m_CorrespondingSourceObject: {fileID: 0}
  m_PrefabInstance: {fileID: 0}
  m_PrefabAsset: {fileID: 0}
  m_GameObject: {fileID: 7553695573505911380}
  m_Enabled: 1
  m_EditorHideFlags: 0
  m_Script: {fileID: 11500000, guid: f3ce18de4c072c64482aed5eddf5469c, type: 3}
  m_Name: 
  m_EditorClassIdentifier: 
  title: Lillypad
  canInheritPosition: 0
  canControlPosition: 0
  positionStep: {x: 0, y: 0}
  dataFields: []
  selectDataFields: []
  customDataFields: []
--- !u!114 &-160163579272548076
MonoBehaviour:
  m_ObjectHideFlags: 0
  m_CorrespondingSourceObject: {fileID: 0}
  m_PrefabInstance: {fileID: 0}
  m_PrefabAsset: {fileID: 0}
  m_GameObject: {fileID: 7553695573505911380}
  m_Enabled: 1
  m_EditorHideFlags: 0
  m_Script: {fileID: 11500000, guid: 7d0e230e81a2f3148b6986fcb2c57e81, type: 3}
  m_Name: 
  m_EditorClassIdentifier: 
  size: 1
  blurSize: 0
  color: {r: 1, g: 1, b: 1, a: 1}
  blurAlphaMultiplier: 0.7
  blurAlphaChoke: 1
  invertBlur: 0
  alphaThreshold: 0.05
  buffer: 0
  includeChildren: 0
  childLayers:
    serializedVersion: 2
    m_Bits: 1
  ignoreChildNames: []
  sortMethod: 1
  isAnimated: 0
  useExportedFrame: 0
  customFrameName: 
  generatesOnStart: 0
  generatesOnValidate: 1
--- !u!1001 &1032183988513561275
PrefabInstance:
  m_ObjectHideFlags: 0
  serializedVersion: 2
  m_Modification:
    m_TransformParent: {fileID: 0}
    m_Modifications:
    - target: {fileID: -3043820012857982230, guid: 772654512ce84834b8cb3312e10a3b93,
        type: 3}
      propertyPath: offsetZ
      value: -0.08
      objectReference: {fileID: 0}
    - target: {fileID: 3549297326683795498, guid: 772654512ce84834b8cb3312e10a3b93,
        type: 3}
      propertyPath: m_Enabled
      value: 0
      objectReference: {fileID: 0}
    - target: {fileID: 3897937281466271823, guid: 772654512ce84834b8cb3312e10a3b93,
        type: 3}
      propertyPath: m_LocalPosition.x
      value: -20.487
      objectReference: {fileID: 0}
    - target: {fileID: 3897937281466271823, guid: 772654512ce84834b8cb3312e10a3b93,
        type: 3}
      propertyPath: m_LocalPosition.y
      value: -3.507
      objectReference: {fileID: 0}
    - target: {fileID: 3897937281466271823, guid: 772654512ce84834b8cb3312e10a3b93,
        type: 3}
      propertyPath: m_LocalPosition.z
      value: -49.817104
      objectReference: {fileID: 0}
    - target: {fileID: 3897937281466271823, guid: 772654512ce84834b8cb3312e10a3b93,
        type: 3}
      propertyPath: m_LocalRotation.x
      value: 0
      objectReference: {fileID: 0}
    - target: {fileID: 3897937281466271823, guid: 772654512ce84834b8cb3312e10a3b93,
        type: 3}
      propertyPath: m_LocalRotation.y
      value: 0
      objectReference: {fileID: 0}
    - target: {fileID: 3897937281466271823, guid: 772654512ce84834b8cb3312e10a3b93,
        type: 3}
      propertyPath: m_LocalRotation.z
      value: 0
      objectReference: {fileID: 0}
    - target: {fileID: 3897937281466271823, guid: 772654512ce84834b8cb3312e10a3b93,
        type: 3}
      propertyPath: m_LocalRotation.w
      value: 1
      objectReference: {fileID: 0}
    - target: {fileID: 3897937281466271823, guid: 772654512ce84834b8cb3312e10a3b93,
        type: 3}
      propertyPath: m_RootOrder
      value: 0
      objectReference: {fileID: 0}
    - target: {fileID: 3897937281466271823, guid: 772654512ce84834b8cb3312e10a3b93,
        type: 3}
      propertyPath: m_LocalEulerAnglesHint.x
      value: 0
      objectReference: {fileID: 0}
    - target: {fileID: 3897937281466271823, guid: 772654512ce84834b8cb3312e10a3b93,
        type: 3}
      propertyPath: m_LocalEulerAnglesHint.y
      value: 0
      objectReference: {fileID: 0}
    - target: {fileID: 3897937281466271823, guid: 772654512ce84834b8cb3312e10a3b93,
        type: 3}
      propertyPath: m_LocalEulerAnglesHint.z
      value: 0
      objectReference: {fileID: 0}
    - target: {fileID: 3897937281466271823, guid: 772654512ce84834b8cb3312e10a3b93,
        type: 3}
      propertyPath: m_LocalScale.x
      value: 6.25
      objectReference: {fileID: 0}
    - target: {fileID: 3897937281466271823, guid: 772654512ce84834b8cb3312e10a3b93,
        type: 3}
      propertyPath: m_LocalScale.y
      value: 6.25
      objectReference: {fileID: 0}
    - target: {fileID: 7387895447105368303, guid: 772654512ce84834b8cb3312e10a3b93,
        type: 3}
      propertyPath: m_Name
      value: Lillypad 4 Variant
      objectReference: {fileID: 0}
    m_RemovedComponents: []
  m_SourcePrefab: {fileID: 100100000, guid: 772654512ce84834b8cb3312e10a3b93, type: 3}
--- !u!1 &7553695573505911380 stripped
GameObject:
  m_CorrespondingSourceObject: {fileID: 7387895447105368303, guid: 772654512ce84834b8cb3312e10a3b93,
    type: 3}
  m_PrefabInstance: {fileID: 1032183988513561275}
  m_PrefabAsset: {fileID: 0}
