%YAML 1.1
%TAG !u! tag:unity3d.com,2011:
--- !u!114 &-2090055970234238287
MonoBehaviour:
  m_ObjectHideFlags: 0
  m_CorrespondingSourceObject: {fileID: 0}
  m_PrefabInstance: {fileID: 0}
  m_PrefabAsset: {fileID: 0}
  m_GameObject: {fileID: 7785826577571396295}
  m_Enabled: 1
  m_EditorHideFlags: 0
  m_Script: {fileID: 11500000, guid: f3ce18de4c072c64482aed5eddf5469c, type: 3}
  m_Name: 
  m_EditorClassIdentifier: 
  title: Statue
  dataFields: []
  selectDataFields: []
  customDataFields: []
--- !u!114 &-510556435932084862
MonoBehaviour:
  m_ObjectHideFlags: 0
  m_CorrespondingSourceObject: {fileID: 0}
  m_PrefabInstance: {fileID: 0}
  m_PrefabAsset: {fileID: 0}
  m_GameObject: {fileID: 7785826577571396295}
  m_Enabled: 1
  m_EditorHideFlags: 0
  m_Script: {fileID: 11500000, guid: 7d0e230e81a2f3148b6986fcb2c57e81, type: 3}
  m_Name: 
  m_EditorClassIdentifier: 
  size: 1
  blurSize: 0
  color: {r: 1, g: 1, b: 1, a: 1}
  blurAlphaMultiplier: 0.7
  blurAlphaChoke: 1
  invertBlur: 0
  alphaThreshold: 0.05
  buffer: 0
  includeChildren: 0
  childLayers:
    serializedVersion: 2
    m_Bits: 1
  ignoreChildNames: []
  sortMethod: 1
  isAnimated: 1
  useExportedFrame: 0
  customFrameName: 
  generatesOnStart: 0
  generatesOnValidate: 1
--- !u!1001 &2128261414261617836
PrefabInstance:
  m_ObjectHideFlags: 0
  serializedVersion: 2
  m_Modification:
    m_TransformParent: {fileID: 0}
    m_Modifications:
    - target: {fileID: 8168326151077454377, guid: 4a0e6c3cc14ad2843b34d2540bec76b0,
        type: 3}
      propertyPath: m_Offset.y
      value: 0.00827837
      objectReference: {fileID: 0}
    - target: {fileID: 8168326151077454377, guid: 4a0e6c3cc14ad2843b34d2540bec76b0,
        type: 3}
      propertyPath: m_Size.y
      value: 3.0054288
      objectReference: {fileID: 0}
    - target: {fileID: 8180166947628633707, guid: 4a0e6c3cc14ad2843b34d2540bec76b0,
        type: 3}
      propertyPath: m_Name
      value: Statue Variant
      objectReference: {fileID: 0}
    - target: {fileID: 8181946177150553825, guid: 4a0e6c3cc14ad2843b34d2540bec76b0,
        type: 3}
      propertyPath: m_LocalPosition.x
      value: 0
      objectReference: {fileID: 0}
    - target: {fileID: 8181946177150553825, guid: 4a0e6c3cc14ad2843b34d2540bec76b0,
        type: 3}
      propertyPath: m_LocalPosition.y
      value: 0
      objectReference: {fileID: 0}
    - target: {fileID: 8181946177150553825, guid: 4a0e6c3cc14ad2843b34d2540bec76b0,
        type: 3}
      propertyPath: m_LocalPosition.z
      value: 0
      objectReference: {fileID: 0}
    - target: {fileID: 8181946177150553825, guid: 4a0e6c3cc14ad2843b34d2540bec76b0,
        type: 3}
      propertyPath: m_LocalRotation.x
      value: 0
      objectReference: {fileID: 0}
    - target: {fileID: 8181946177150553825, guid: 4a0e6c3cc14ad2843b34d2540bec76b0,
        type: 3}
      propertyPath: m_LocalRotation.y
      value: 0
      objectReference: {fileID: 0}
    - target: {fileID: 8181946177150553825, guid: 4a0e6c3cc14ad2843b34d2540bec76b0,
        type: 3}
      propertyPath: m_LocalRotation.z
      value: 0
      objectReference: {fileID: 0}
    - target: {fileID: 8181946177150553825, guid: 4a0e6c3cc14ad2843b34d2540bec76b0,
        type: 3}
      propertyPath: m_LocalRotation.w
      value: 1
      objectReference: {fileID: 0}
    - target: {fileID: 8181946177150553825, guid: 4a0e6c3cc14ad2843b34d2540bec76b0,
        type: 3}
      propertyPath: m_RootOrder
      value: 0
      objectReference: {fileID: 0}
    - target: {fileID: 8181946177150553825, guid: 4a0e6c3cc14ad2843b34d2540bec76b0,
        type: 3}
      propertyPath: m_LocalEulerAnglesHint.x
      value: 0
      objectReference: {fileID: 0}
    - target: {fileID: 8181946177150553825, guid: 4a0e6c3cc14ad2843b34d2540bec76b0,
        type: 3}
      propertyPath: m_LocalEulerAnglesHint.y
      value: 0
      objectReference: {fileID: 0}
    - target: {fileID: 8181946177150553825, guid: 4a0e6c3cc14ad2843b34d2540bec76b0,
        type: 3}
      propertyPath: m_LocalEulerAnglesHint.z
      value: 0
      objectReference: {fileID: 0}
    - target: {fileID: 8181946177150553825, guid: 4a0e6c3cc14ad2843b34d2540bec76b0,
        type: 3}
      propertyPath: m_LocalScale.x
      value: 1
      objectReference: {fileID: 0}
    - target: {fileID: 8181946177150553825, guid: 4a0e6c3cc14ad2843b34d2540bec76b0,
        type: 3}
      propertyPath: m_LocalScale.y
      value: 1
      objectReference: {fileID: 0}
    - target: {fileID: 8183934799651056719, guid: 4a0e6c3cc14ad2843b34d2540bec76b0,
        type: 3}
      propertyPath: m_LocalPosition.y
      value: -1
      objectReference: {fileID: 0}
    m_RemovedComponents: []
  m_SourcePrefab: {fileID: 100100000, guid: 4a0e6c3cc14ad2843b34d2540bec76b0, type: 3}
--- !u!1 &7785826577571396295 stripped
GameObject:
  m_CorrespondingSourceObject: {fileID: 8180166947628633707, guid: 4a0e6c3cc14ad2843b34d2540bec76b0,
    type: 3}
  m_PrefabInstance: {fileID: 2128261414261617836}
  m_PrefabAsset: {fileID: 0}
