%YAML 1.1
%TAG !u! tag:unity3d.com,2011:
--- !u!1 &8085866452153684522
GameObject:
  m_ObjectHideFlags: 0
  m_CorrespondingSourceObject: {fileID: 0}
  m_PrefabInstance: {fileID: 0}
  m_PrefabAsset: {fileID: 0}
  serializedVersion: 6
  m_Component:
  - component: {fileID: 1692859669718143880}
  - component: {fileID: 4789513241208787340}
  m_Layer: 0
  m_Name: Outline
  m_TagString: Untagged
  m_Icon: {fileID: 0}
  m_NavMeshLayer: 0
  m_StaticEditorFlags: 0
  m_IsActive: 1
--- !u!4 &1692859669718143880
Transform:
  m_ObjectHideFlags: 0
  m_CorrespondingSourceObject: {fileID: 0}
  m_PrefabInstance: {fileID: 0}
  m_PrefabAsset: {fileID: 0}
  m_GameObject: {fileID: 8085866452153684522}
  m_LocalRotation: {x: 0, y: 0, z: 0, w: 1}
  m_LocalPosition: {x: 0, y: 0, z: -0.000001}
  m_LocalScale: {x: 1, y: 1, z: 1}
  m_Children: []
  m_Father: {fileID: 8530676512706529164}
  m_RootOrder: 1
  m_LocalEulerAnglesHint: {x: 0, y: 0, z: 0}
--- !u!212 &4789513241208787340
SpriteRenderer:
  m_ObjectHideFlags: 0
  m_CorrespondingSourceObject: {fileID: 0}
  m_PrefabInstance: {fileID: 0}
  m_PrefabAsset: {fileID: 0}
  m_GameObject: {fileID: 8085866452153684522}
  m_Enabled: 1
  m_CastShadows: 0
  m_ReceiveShadows: 0
  m_DynamicOccludee: 1
  m_MotionVectors: 1
  m_LightProbeUsage: 1
  m_ReflectionProbeUsage: 1
  m_RayTracingMode: 0
  m_RenderingLayerMask: 1
  m_RendererPriority: 0
  m_Materials:
  - {fileID: 0}
  m_StaticBatchInfo:
    firstSubMesh: 0
    subMeshCount: 0
  m_StaticBatchRoot: {fileID: 0}
  m_ProbeAnchor: {fileID: 0}
  m_LightProbeVolumeOverride: {fileID: 0}
  m_ScaleInLightmap: 1
  m_ReceiveGI: 1
  m_PreserveUVs: 0
  m_IgnoreNormalsForChartDetection: 0
  m_ImportantGI: 0
  m_StitchLightmapSeams: 1
  m_SelectedEditorRenderState: 0
  m_MinimumChartSize: 4
  m_AutoUVMaxDistance: 0.5
  m_AutoUVMaxAngle: 89
  m_LightmapParameters: {fileID: 0}
  m_SortingLayerID: 0
  m_SortingLayer: 0
  m_SortingOrder: 0
  m_Sprite: {fileID: 0}
  m_Color: {r: 1, g: 1, b: 1, a: 1}
  m_FlipX: 0
  m_FlipY: 0
  m_DrawMode: 0
  m_Size: {x: 0.18, y: 0.34}
  m_AdaptiveModeThreshold: 0.5
  m_SpriteTileMode: 0
  m_WasSpriteAssigned: 0
  m_MaskInteraction: 0
  m_SpriteSortPoint: 0
--- !u!114 &-2212562680320520899
MonoBehaviour:
  m_ObjectHideFlags: 0
  m_CorrespondingSourceObject: {fileID: 0}
  m_PrefabInstance: {fileID: 0}
  m_PrefabAsset: {fileID: 0}
  m_GameObject: {fileID: 8530676512706529152}
  m_Enabled: 1
  m_EditorHideFlags: 0
  m_Script: {fileID: 11500000, guid: 7d0e230e81a2f3148b6986fcb2c57e81, type: 3}
  m_Name: 
  m_EditorClassIdentifier: 
  ignoredRenderers: []
  _renderers: []
--- !u!114 &1449425764505147281
MonoBehaviour:
  m_ObjectHideFlags: 0
  m_CorrespondingSourceObject: {fileID: 0}
  m_PrefabInstance: {fileID: 0}
  m_PrefabAsset: {fileID: 0}
  m_GameObject: {fileID: 8530676512706529152}
  m_Enabled: 1
  m_EditorHideFlags: 0
  m_Script: {fileID: 11500000, guid: f3ce18de4c072c64482aed5eddf5469c, type: 3}
  m_Name: 
  m_EditorClassIdentifier: 
  title: Chair
  canInheritPosition: 0
  canControlPosition: 1
  positionStep: {x: 0, y: 0}
  dataFields:
  - name: is permanent
    defaultValue: true
    toolTip: Is Prefab Placed Permanently
    type: 3
  selectDataFields: []
  customDataFields: []
--- !u!1001 &8613196869470780152
PrefabInstance:
  m_ObjectHideFlags: 0
  serializedVersion: 2
  m_Modification:
    m_TransformParent: {fileID: 0}
    m_Modifications:
    - target: {fileID: 138263571236388212, guid: fa47db2d7a390fc4c81aec97d67b7ff5,
        type: 3}
      propertyPath: m_LocalPosition.x
      value: 3.902
      objectReference: {fileID: 0}
    - target: {fileID: 138263571236388212, guid: fa47db2d7a390fc4c81aec97d67b7ff5,
        type: 3}
      propertyPath: m_LocalPosition.y
      value: -14.958
      objectReference: {fileID: 0}
    - target: {fileID: 138263571236388212, guid: fa47db2d7a390fc4c81aec97d67b7ff5,
        type: 3}
      propertyPath: m_LocalPosition.z
      value: 0
      objectReference: {fileID: 0}
    - target: {fileID: 138263571236388212, guid: fa47db2d7a390fc4c81aec97d67b7ff5,
        type: 3}
      propertyPath: m_LocalRotation.x
      value: -0
      objectReference: {fileID: 0}
    - target: {fileID: 138263571236388212, guid: fa47db2d7a390fc4c81aec97d67b7ff5,
        type: 3}
      propertyPath: m_LocalRotation.y
      value: -0
      objectReference: {fileID: 0}
    - target: {fileID: 138263571236388212, guid: fa47db2d7a390fc4c81aec97d67b7ff5,
        type: 3}
      propertyPath: m_LocalRotation.z
      value: -0
      objectReference: {fileID: 0}
    - target: {fileID: 138263571236388212, guid: fa47db2d7a390fc4c81aec97d67b7ff5,
        type: 3}
      propertyPath: m_LocalRotation.w
      value: 1
      objectReference: {fileID: 0}
    - target: {fileID: 138263571236388212, guid: fa47db2d7a390fc4c81aec97d67b7ff5,
        type: 3}
      propertyPath: m_RootOrder
      value: 0
      objectReference: {fileID: 0}
    - target: {fileID: 138263571236388212, guid: fa47db2d7a390fc4c81aec97d67b7ff5,
        type: 3}
      propertyPath: m_LocalEulerAnglesHint.x
      value: 0
      objectReference: {fileID: 0}
    - target: {fileID: 138263571236388212, guid: fa47db2d7a390fc4c81aec97d67b7ff5,
        type: 3}
      propertyPath: m_LocalEulerAnglesHint.y
      value: 0
      objectReference: {fileID: 0}
    - target: {fileID: 138263571236388212, guid: fa47db2d7a390fc4c81aec97d67b7ff5,
        type: 3}
      propertyPath: m_LocalEulerAnglesHint.z
      value: 0
      objectReference: {fileID: 0}
    - target: {fileID: 138263571236388212, guid: fa47db2d7a390fc4c81aec97d67b7ff5,
        type: 3}
      propertyPath: m_LocalScale.x
      value: 6.25
      objectReference: {fileID: 0}
    - target: {fileID: 138263571236388212, guid: fa47db2d7a390fc4c81aec97d67b7ff5,
        type: 3}
      propertyPath: m_LocalScale.y
      value: 6.25
      objectReference: {fileID: 0}
    - target: {fileID: 138263571236388214, guid: fa47db2d7a390fc4c81aec97d67b7ff5,
        type: 3}
      propertyPath: m_Offset.y
      value: -0.04
      objectReference: {fileID: 0}
    - target: {fileID: 138263571236388216, guid: fa47db2d7a390fc4c81aec97d67b7ff5,
        type: 3}
      propertyPath: m_Name
      value: Chair E Variant
      objectReference: {fileID: 0}
    - target: {fileID: 138263571236388217, guid: fa47db2d7a390fc4c81aec97d67b7ff5,
        type: 3}
      propertyPath: isActive
      value: 1
      objectReference: {fileID: 0}
    - target: {fileID: 578854547036339536, guid: fa47db2d7a390fc4c81aec97d67b7ff5,
        type: 3}
      propertyPath: m_RootOrder
      value: 3
      objectReference: {fileID: 0}
    - target: {fileID: 3216684076369470894, guid: fa47db2d7a390fc4c81aec97d67b7ff5,
        type: 3}
      propertyPath: m_IsActive
      value: 0
      objectReference: {fileID: 0}
    m_RemovedComponents: []
  m_SourcePrefab: {fileID: 100100000, guid: fa47db2d7a390fc4c81aec97d67b7ff5, type: 3}
--- !u!1 &8530676512706529152 stripped
GameObject:
  m_CorrespondingSourceObject: {fileID: 138263571236388216, guid: fa47db2d7a390fc4c81aec97d67b7ff5,
    type: 3}
  m_PrefabInstance: {fileID: 8613196869470780152}
  m_PrefabAsset: {fileID: 0}
--- !u!4 &8530676512706529164 stripped
Transform:
  m_CorrespondingSourceObject: {fileID: 138263571236388212, guid: fa47db2d7a390fc4c81aec97d67b7ff5,
    type: 3}
  m_PrefabInstance: {fileID: 8613196869470780152}
  m_PrefabAsset: {fileID: 0}
