%YAML 1.1
%TAG !u! tag:unity3d.com,2011:
--- !u!1 &3786212155541086661
GameObject:
  m_ObjectHideFlags: 0
  m_CorrespondingSourceObject: {fileID: 0}
  m_PrefabInstance: {fileID: 0}
  m_PrefabAsset: {fileID: 0}
  serializedVersion: 6
  m_Component:
  - component: {fileID: 7910183736422775225}
  - component: {fileID: 3168087272583845604}
  m_Layer: 15
  m_Name: Outline
  m_TagString: Untagged
  m_Icon: {fileID: 0}
  m_NavMeshLayer: 0
  m_StaticEditorFlags: 0
  m_IsActive: 1
--- !u!4 &7910183736422775225
Transform:
  m_ObjectHideFlags: 0
  m_CorrespondingSourceObject: {fileID: 0}
  m_PrefabInstance: {fileID: 0}
  m_PrefabAsset: {fileID: 0}
  m_GameObject: {fileID: 3786212155541086661}
  m_LocalRotation: {x: 0, y: 0, z: 0, w: 1}
  m_LocalPosition: {x: 0, y: 0, z: -0.000001}
  m_LocalScale: {x: 1, y: 1, z: 1}
  m_Children: []
  m_Father: {fileID: 7596176530758509177}
  m_RootOrder: 1
  m_LocalEulerAnglesHint: {x: 0, y: 0, z: 0}
--- !u!212 &3168087272583845604
SpriteRenderer:
  m_ObjectHideFlags: 0
  m_CorrespondingSourceObject: {fileID: 0}
  m_PrefabInstance: {fileID: 0}
  m_PrefabAsset: {fileID: 0}
  m_GameObject: {fileID: 3786212155541086661}
  m_Enabled: 1
  m_CastShadows: 0
  m_ReceiveShadows: 0
  m_DynamicOccludee: 1
  m_MotionVectors: 1
  m_LightProbeUsage: 1
  m_ReflectionProbeUsage: 1
  m_RayTracingMode: 0
  m_RenderingLayerMask: 1
  m_RendererPriority: 0
  m_Materials:
  - {fileID: 0}
  m_StaticBatchInfo:
    firstSubMesh: 0
    subMeshCount: 0
  m_StaticBatchRoot: {fileID: 0}
  m_ProbeAnchor: {fileID: 0}
  m_LightProbeVolumeOverride: {fileID: 0}
  m_ScaleInLightmap: 1
  m_ReceiveGI: 1
  m_PreserveUVs: 0
  m_IgnoreNormalsForChartDetection: 0
  m_ImportantGI: 0
  m_StitchLightmapSeams: 1
  m_SelectedEditorRenderState: 0
  m_MinimumChartSize: 4
  m_AutoUVMaxDistance: 0.5
  m_AutoUVMaxAngle: 89
  m_LightmapParameters: {fileID: 0}
  m_SortingLayerID: 0
  m_SortingLayer: 0
  m_SortingOrder: 0
  m_Sprite: {fileID: 0}
  m_Color: {r: 1, g: 1, b: 1, a: 1}
  m_FlipX: 0
  m_FlipY: 0
  m_DrawMode: 0
  m_Size: {x: 0.18, y: 0.5}
  m_AdaptiveModeThreshold: 0.5
  m_SpriteTileMode: 0
  m_WasSpriteAssigned: 0
  m_MaskInteraction: 0
  m_SpriteSortPoint: 0
--- !u!114 &2236123076628112695
MonoBehaviour:
  m_ObjectHideFlags: 0
  m_CorrespondingSourceObject: {fileID: 0}
  m_PrefabInstance: {fileID: 0}
  m_PrefabAsset: {fileID: 0}
  m_GameObject: {fileID: 7601263539252428435}
  m_Enabled: 1
  m_EditorHideFlags: 0
  m_Script: {fileID: 11500000, guid: f3ce18de4c072c64482aed5eddf5469c, type: 3}
  m_Name: 
  m_EditorClassIdentifier: 
  title: Clock
  canInheritPosition: 0
  canControlPosition: 1
  positionStep: {x: 0, y: 0}
  dataFields: []
  selectDataFields: []
  customDataFields: []
--- !u!114 &4138636715406166506
MonoBehaviour:
  m_ObjectHideFlags: 0
  m_CorrespondingSourceObject: {fileID: 0}
  m_PrefabInstance: {fileID: 0}
  m_PrefabAsset: {fileID: 0}
  m_GameObject: {fileID: 7601263539252428435}
  m_Enabled: 1
  m_EditorHideFlags: 0
  m_Script: {fileID: 11500000, guid: 7d0e230e81a2f3148b6986fcb2c57e81, type: 3}
  m_Name: 
  m_EditorClassIdentifier: 
  ignoredRenderers: []
  _renderers: []
--- !u!1001 &9182118040492055470
PrefabInstance:
  m_ObjectHideFlags: 0
  serializedVersion: 2
  m_Modification:
    m_TransformParent: {fileID: 0}
    m_Modifications:
    - target: {fileID: 552881596422842880, guid: de332937a01ace3448613aa9f39ca474,
        type: 3}
      propertyPath: m_IsActive
      value: 1
      objectReference: {fileID: 0}
    - target: {fileID: 678893825873714602, guid: de332937a01ace3448613aa9f39ca474,
        type: 3}
      propertyPath: m_RootOrder
      value: 4
      objectReference: {fileID: 0}
    - target: {fileID: 1587068049791990231, guid: de332937a01ace3448613aa9f39ca474,
        type: 3}
      propertyPath: m_LocalPosition.x
      value: -1.955823
      objectReference: {fileID: 0}
    - target: {fileID: 1587068049791990231, guid: de332937a01ace3448613aa9f39ca474,
        type: 3}
      propertyPath: m_LocalPosition.y
      value: 0
      objectReference: {fileID: 0}
    - target: {fileID: 1587068049791990231, guid: de332937a01ace3448613aa9f39ca474,
        type: 3}
      propertyPath: m_LocalPosition.z
      value: 50
      objectReference: {fileID: 0}
    - target: {fileID: 1587068049791990231, guid: de332937a01ace3448613aa9f39ca474,
        type: 3}
      propertyPath: m_LocalRotation.x
      value: 0
      objectReference: {fileID: 0}
    - target: {fileID: 1587068049791990231, guid: de332937a01ace3448613aa9f39ca474,
        type: 3}
      propertyPath: m_LocalRotation.y
      value: 0
      objectReference: {fileID: 0}
    - target: {fileID: 1587068049791990231, guid: de332937a01ace3448613aa9f39ca474,
        type: 3}
      propertyPath: m_LocalRotation.z
      value: 0
      objectReference: {fileID: 0}
    - target: {fileID: 1587068049791990231, guid: de332937a01ace3448613aa9f39ca474,
        type: 3}
      propertyPath: m_LocalRotation.w
      value: 1
      objectReference: {fileID: 0}
    - target: {fileID: 1587068049791990231, guid: de332937a01ace3448613aa9f39ca474,
        type: 3}
      propertyPath: m_RootOrder
      value: 0
      objectReference: {fileID: 0}
    - target: {fileID: 1587068049791990231, guid: de332937a01ace3448613aa9f39ca474,
        type: 3}
      propertyPath: m_LocalEulerAnglesHint.x
      value: 0
      objectReference: {fileID: 0}
    - target: {fileID: 1587068049791990231, guid: de332937a01ace3448613aa9f39ca474,
        type: 3}
      propertyPath: m_LocalEulerAnglesHint.y
      value: 0
      objectReference: {fileID: 0}
    - target: {fileID: 1587068049791990231, guid: de332937a01ace3448613aa9f39ca474,
        type: 3}
      propertyPath: m_LocalEulerAnglesHint.z
      value: 0
      objectReference: {fileID: 0}
    - target: {fileID: 1587068049791990231, guid: de332937a01ace3448613aa9f39ca474,
        type: 3}
      propertyPath: m_LocalScale.x
      value: 6.25
      objectReference: {fileID: 0}
    - target: {fileID: 1587068049791990231, guid: de332937a01ace3448613aa9f39ca474,
        type: 3}
      propertyPath: m_LocalScale.y
      value: 6.25
      objectReference: {fileID: 0}
    - target: {fileID: 1589897520664339773, guid: de332937a01ace3448613aa9f39ca474,
        type: 3}
      propertyPath: m_Name
      value: Clock Variant
      objectReference: {fileID: 0}
    - target: {fileID: 1643214899717405095, guid: de332937a01ace3448613aa9f39ca474,
        type: 3}
      propertyPath: m_Offset.y
      value: 0.00068590045
      objectReference: {fileID: 0}
    - target: {fileID: 1643214899717405095, guid: de332937a01ace3448613aa9f39ca474,
        type: 3}
      propertyPath: m_Size.y
      value: 0.4739586
      objectReference: {fileID: 0}
    - target: {fileID: 3835844261790558088, guid: de332937a01ace3448613aa9f39ca474,
        type: 3}
      propertyPath: m_Enabled
      value: 0
      objectReference: {fileID: 0}
    - target: {fileID: 4931598266498720653, guid: de332937a01ace3448613aa9f39ca474,
        type: 3}
      propertyPath: m_RootOrder
      value: 2
      objectReference: {fileID: 0}
    - target: {fileID: 4931598266498720653, guid: de332937a01ace3448613aa9f39ca474,
        type: 3}
      propertyPath: m_LocalPosition.z
      value: -0.1
      objectReference: {fileID: 0}
    - target: {fileID: 5597599835543672081, guid: de332937a01ace3448613aa9f39ca474,
        type: 3}
      propertyPath: m_SizeDelta.x
      value: 150
      objectReference: {fileID: 0}
    - target: {fileID: 5597599835543672081, guid: de332937a01ace3448613aa9f39ca474,
        type: 3}
      propertyPath: m_SizeDelta.y
      value: 35
      objectReference: {fileID: 0}
    - target: {fileID: 5671303727940127932, guid: de332937a01ace3448613aa9f39ca474,
        type: 3}
      propertyPath: m_AnchorMin.y
      value: 1
      objectReference: {fileID: 0}
    - target: {fileID: 5671303727940127932, guid: de332937a01ace3448613aa9f39ca474,
        type: 3}
      propertyPath: m_AnchorMax.y
      value: 1
      objectReference: {fileID: 0}
    - target: {fileID: 5671303727940127932, guid: de332937a01ace3448613aa9f39ca474,
        type: 3}
      propertyPath: m_AnchoredPosition.x
      value: 71
      objectReference: {fileID: 0}
    - target: {fileID: 5671303727940127932, guid: de332937a01ace3448613aa9f39ca474,
        type: 3}
      propertyPath: m_AnchoredPosition.y
      value: -16.02
      objectReference: {fileID: 0}
    - target: {fileID: 5671303727940127932, guid: de332937a01ace3448613aa9f39ca474,
        type: 3}
      propertyPath: m_SizeDelta.x
      value: 150
      objectReference: {fileID: 0}
    - target: {fileID: 5671303727940127932, guid: de332937a01ace3448613aa9f39ca474,
        type: 3}
      propertyPath: m_SizeDelta.y
      value: 26.04
      objectReference: {fileID: 0}
    - target: {fileID: 5715990231978960680, guid: de332937a01ace3448613aa9f39ca474,
        type: 3}
      propertyPath: m_IsActive
      value: 0
      objectReference: {fileID: 0}
    - target: {fileID: 5784414878201272195, guid: de332937a01ace3448613aa9f39ca474,
        type: 3}
      propertyPath: m_AnchorMin.y
      value: 1
      objectReference: {fileID: 0}
    - target: {fileID: 5784414878201272195, guid: de332937a01ace3448613aa9f39ca474,
        type: 3}
      propertyPath: m_AnchorMax.y
      value: 1
      objectReference: {fileID: 0}
    - target: {fileID: 5784414878201272195, guid: de332937a01ace3448613aa9f39ca474,
        type: 3}
      propertyPath: m_AnchoredPosition.x
      value: 75
      objectReference: {fileID: 0}
    - target: {fileID: 5784414878201272195, guid: de332937a01ace3448613aa9f39ca474,
        type: 3}
      propertyPath: m_AnchoredPosition.y
      value: -17.98
      objectReference: {fileID: 0}
    - target: {fileID: 5784414878201272195, guid: de332937a01ace3448613aa9f39ca474,
        type: 3}
      propertyPath: m_SizeDelta.x
      value: 150
      objectReference: {fileID: 0}
    - target: {fileID: 5784414878201272195, guid: de332937a01ace3448613aa9f39ca474,
        type: 3}
      propertyPath: m_SizeDelta.y
      value: 34.04
      objectReference: {fileID: 0}
    - target: {fileID: 6255790322949146146, guid: de332937a01ace3448613aa9f39ca474,
        type: 3}
      propertyPath: isActive
      value: 1
      objectReference: {fileID: 0}
    - target: {fileID: 7211291079371056160, guid: de332937a01ace3448613aa9f39ca474,
        type: 3}
      propertyPath: m_IsActive
      value: 0
      objectReference: {fileID: 0}
    - target: {fileID: 8241100336113149957, guid: de332937a01ace3448613aa9f39ca474,
        type: 3}
      propertyPath: m_RootOrder
      value: 3
      objectReference: {fileID: 0}
    m_RemovedComponents:
    - {fileID: 1697448446967937901, guid: de332937a01ace3448613aa9f39ca474, type: 3}
  m_SourcePrefab: {fileID: 100100000, guid: de332937a01ace3448613aa9f39ca474, type: 3}
--- !u!1 &7601263539252428435 stripped
GameObject:
  m_CorrespondingSourceObject: {fileID: 1589897520664339773, guid: de332937a01ace3448613aa9f39ca474,
    type: 3}
  m_PrefabInstance: {fileID: 9182118040492055470}
  m_PrefabAsset: {fileID: 0}
--- !u!4 &7596176530758509177 stripped
Transform:
  m_CorrespondingSourceObject: {fileID: 1587068049791990231, guid: de332937a01ace3448613aa9f39ca474,
    type: 3}
  m_PrefabInstance: {fileID: 9182118040492055470}
  m_PrefabAsset: {fileID: 0}
