%YAML 1.1
%TAG !u! tag:unity3d.com,2011:
--- !u!1001 &4094833234373434211
PrefabInstance:
  m_ObjectHideFlags: 0
  serializedVersion: 2
  m_Modification:
    m_TransformParent: {fileID: 0}
    m_Modifications:
    - target: {fileID: -3668181533897587454, guid: de90d1482f981294ead7a6f12304b49e,
        type: 3}
      propertyPath: subSpriteArray.Array.size
      value: 48
      objectReference: {fileID: 0}
    - target: {fileID: -3668181533897587454, guid: de90d1482f981294ead7a6f12304b49e,
        type: 3}
      propertyPath: mainSprite
      value: 
      objectReference: {fileID: 21300000, guid: 3016ce2d5bd75a147aa3a66460e33058,
        type: 3}
    - target: {fileID: -3668181533897587454, guid: de90d1482f981294ead7a6f12304b49e,
        type: 3}
      propertyPath: subSprite
      value: 
      objectReference: {fileID: -3295055759941171001, guid: 474729d155c8ab34a8188e171781b6db,
        type: 3}
    - target: {fileID: -3668181533897587454, guid: de90d1482f981294ead7a6f12304b49e,
        type: 3}
      propertyPath: subSpriteArray.Array.data[0]
      value: 
      objectReference: {fileID: -3295055759941171001, guid: 474729d155c8ab34a8188e171781b6db,
        type: 3}
    - target: {fileID: -3668181533897587454, guid: de90d1482f981294ead7a6f12304b49e,
        type: 3}
      propertyPath: subSpriteArray.Array.data[1]
      value: 
      objectReference: {fileID: -4085947459598364911, guid: 474729d155c8ab34a8188e171781b6db,
        type: 3}
    - target: {fileID: -3668181533897587454, guid: de90d1482f981294ead7a6f12304b49e,
        type: 3}
      propertyPath: subSpriteArray.Array.data[2]
      value: 
      objectReference: {fileID: -9180372166374541925, guid: 474729d155c8ab34a8188e171781b6db,
        type: 3}
    - target: {fileID: -3668181533897587454, guid: de90d1482f981294ead7a6f12304b49e,
        type: 3}
      propertyPath: subSpriteArray.Array.data[3]
      value: 
      objectReference: {fileID: -7779794441510569443, guid: 474729d155c8ab34a8188e171781b6db,
        type: 3}
    - target: {fileID: -3668181533897587454, guid: de90d1482f981294ead7a6f12304b49e,
        type: 3}
      propertyPath: subSpriteArray.Array.data[4]
      value: 
      objectReference: {fileID: 7351388749126366597, guid: 474729d155c8ab34a8188e171781b6db,
        type: 3}
    - target: {fileID: -3668181533897587454, guid: de90d1482f981294ead7a6f12304b49e,
        type: 3}
      propertyPath: subSpriteArray.Array.data[5]
      value: 
      objectReference: {fileID: 5174594054069276469, guid: 474729d155c8ab34a8188e171781b6db,
        type: 3}
    - target: {fileID: -3668181533897587454, guid: de90d1482f981294ead7a6f12304b49e,
        type: 3}
      propertyPath: subSpriteArray.Array.data[6]
      value: 
      objectReference: {fileID: -5327854521262615936, guid: 474729d155c8ab34a8188e171781b6db,
        type: 3}
    - target: {fileID: -3668181533897587454, guid: de90d1482f981294ead7a6f12304b49e,
        type: 3}
      propertyPath: subSpriteArray.Array.data[7]
      value: 
      objectReference: {fileID: -2302518878898176162, guid: 474729d155c8ab34a8188e171781b6db,
        type: 3}
    - target: {fileID: -3668181533897587454, guid: de90d1482f981294ead7a6f12304b49e,
        type: 3}
      propertyPath: subSpriteArray.Array.data[8]
      value: 
      objectReference: {fileID: 3281872399141315455, guid: 474729d155c8ab34a8188e171781b6db,
        type: 3}
    - target: {fileID: -3668181533897587454, guid: de90d1482f981294ead7a6f12304b49e,
        type: 3}
      propertyPath: subSpriteArray.Array.data[9]
      value: 
      objectReference: {fileID: 7278992905570850816, guid: 474729d155c8ab34a8188e171781b6db,
        type: 3}
    - target: {fileID: -3668181533897587454, guid: de90d1482f981294ead7a6f12304b49e,
        type: 3}
      propertyPath: subSpriteArray.Array.data[10]
      value: 
      objectReference: {fileID: -3719578347245262085, guid: 474729d155c8ab34a8188e171781b6db,
        type: 3}
    - target: {fileID: -3668181533897587454, guid: de90d1482f981294ead7a6f12304b49e,
        type: 3}
      propertyPath: subSpriteArray.Array.data[11]
      value: 
      objectReference: {fileID: -7919629328511329706, guid: 474729d155c8ab34a8188e171781b6db,
        type: 3}
    - target: {fileID: -3668181533897587454, guid: de90d1482f981294ead7a6f12304b49e,
        type: 3}
      propertyPath: subSpriteArray.Array.data[12]
      value: 
      objectReference: {fileID: -2406752549484162817, guid: 474729d155c8ab34a8188e171781b6db,
        type: 3}
    - target: {fileID: -3668181533897587454, guid: de90d1482f981294ead7a6f12304b49e,
        type: 3}
      propertyPath: subSpriteArray.Array.data[13]
      value: 
      objectReference: {fileID: -788330288675640999, guid: 474729d155c8ab34a8188e171781b6db,
        type: 3}
    - target: {fileID: -3668181533897587454, guid: de90d1482f981294ead7a6f12304b49e,
        type: 3}
      propertyPath: subSpriteArray.Array.data[14]
      value: 
      objectReference: {fileID: -8593974472774208789, guid: 474729d155c8ab34a8188e171781b6db,
        type: 3}
    - target: {fileID: -3668181533897587454, guid: de90d1482f981294ead7a6f12304b49e,
        type: 3}
      propertyPath: subSpriteArray.Array.data[15]
      value: 
      objectReference: {fileID: -7333379106438472869, guid: 474729d155c8ab34a8188e171781b6db,
        type: 3}
    - target: {fileID: -3668181533897587454, guid: de90d1482f981294ead7a6f12304b49e,
        type: 3}
      propertyPath: subSpriteArray.Array.data[16]
      value: 
      objectReference: {fileID: 7781775068372214608, guid: 474729d155c8ab34a8188e171781b6db,
        type: 3}
    - target: {fileID: -3668181533897587454, guid: de90d1482f981294ead7a6f12304b49e,
        type: 3}
      propertyPath: subSpriteArray.Array.data[17]
      value: 
      objectReference: {fileID: 8191680826072069176, guid: 474729d155c8ab34a8188e171781b6db,
        type: 3}
    - target: {fileID: -3668181533897587454, guid: de90d1482f981294ead7a6f12304b49e,
        type: 3}
      propertyPath: subSpriteArray.Array.data[18]
      value: 
      objectReference: {fileID: 8769841962969923189, guid: 474729d155c8ab34a8188e171781b6db,
        type: 3}
    - target: {fileID: -3668181533897587454, guid: de90d1482f981294ead7a6f12304b49e,
        type: 3}
      propertyPath: subSpriteArray.Array.data[19]
      value: 
      objectReference: {fileID: 6186481173339369291, guid: 474729d155c8ab34a8188e171781b6db,
        type: 3}
    - target: {fileID: -3668181533897587454, guid: de90d1482f981294ead7a6f12304b49e,
        type: 3}
      propertyPath: subSpriteArray.Array.data[20]
      value: 
      objectReference: {fileID: -5669369512148123660, guid: 474729d155c8ab34a8188e171781b6db,
        type: 3}
    - target: {fileID: -3668181533897587454, guid: de90d1482f981294ead7a6f12304b49e,
        type: 3}
      propertyPath: subSpriteArray.Array.data[21]
      value: 
      objectReference: {fileID: 2740824752132533967, guid: 474729d155c8ab34a8188e171781b6db,
        type: 3}
    - target: {fileID: -3668181533897587454, guid: de90d1482f981294ead7a6f12304b49e,
        type: 3}
      propertyPath: subSpriteArray.Array.data[22]
      value: 
      objectReference: {fileID: -9170321947985255801, guid: 474729d155c8ab34a8188e171781b6db,
        type: 3}
    - target: {fileID: -3668181533897587454, guid: de90d1482f981294ead7a6f12304b49e,
        type: 3}
      propertyPath: subSpriteArray.Array.data[23]
      value: 
      objectReference: {fileID: -5890246420911162492, guid: 474729d155c8ab34a8188e171781b6db,
        type: 3}
    - target: {fileID: -3668181533897587454, guid: de90d1482f981294ead7a6f12304b49e,
        type: 3}
      propertyPath: subSpriteArray.Array.data[24]
      value: 
      objectReference: {fileID: -3272408721470584726, guid: 474729d155c8ab34a8188e171781b6db,
        type: 3}
    - target: {fileID: -3668181533897587454, guid: de90d1482f981294ead7a6f12304b49e,
        type: 3}
      propertyPath: subSpriteArray.Array.data[25]
      value: 
      objectReference: {fileID: 4575410516456723723, guid: 474729d155c8ab34a8188e171781b6db,
        type: 3}
    - target: {fileID: -3668181533897587454, guid: de90d1482f981294ead7a6f12304b49e,
        type: 3}
      propertyPath: subSpriteArray.Array.data[26]
      value: 
      objectReference: {fileID: -451902850012307666, guid: 474729d155c8ab34a8188e171781b6db,
        type: 3}
    - target: {fileID: -3668181533897587454, guid: de90d1482f981294ead7a6f12304b49e,
        type: 3}
      propertyPath: subSpriteArray.Array.data[27]
      value: 
      objectReference: {fileID: -623502733866130390, guid: 474729d155c8ab34a8188e171781b6db,
        type: 3}
    - target: {fileID: -3668181533897587454, guid: de90d1482f981294ead7a6f12304b49e,
        type: 3}
      propertyPath: subSpriteArray.Array.data[28]
      value: 
      objectReference: {fileID: -2000395890254520952, guid: 474729d155c8ab34a8188e171781b6db,
        type: 3}
    - target: {fileID: -3668181533897587454, guid: de90d1482f981294ead7a6f12304b49e,
        type: 3}
      propertyPath: subSpriteArray.Array.data[29]
      value: 
      objectReference: {fileID: 3003257740397537304, guid: 474729d155c8ab34a8188e171781b6db,
        type: 3}
    - target: {fileID: -3668181533897587454, guid: de90d1482f981294ead7a6f12304b49e,
        type: 3}
      propertyPath: subSpriteArray.Array.data[30]
      value: 
      objectReference: {fileID: 3920348159096058102, guid: 474729d155c8ab34a8188e171781b6db,
        type: 3}
    - target: {fileID: -3668181533897587454, guid: de90d1482f981294ead7a6f12304b49e,
        type: 3}
      propertyPath: subSpriteArray.Array.data[31]
      value: 
      objectReference: {fileID: -820538578731666818, guid: 474729d155c8ab34a8188e171781b6db,
        type: 3}
    - target: {fileID: -3668181533897587454, guid: de90d1482f981294ead7a6f12304b49e,
        type: 3}
      propertyPath: subSpriteArray.Array.data[32]
      value: 
      objectReference: {fileID: -1761113147367423391, guid: 474729d155c8ab34a8188e171781b6db,
        type: 3}
    - target: {fileID: -3668181533897587454, guid: de90d1482f981294ead7a6f12304b49e,
        type: 3}
      propertyPath: subSpriteArray.Array.data[33]
      value: 
      objectReference: {fileID: 6148433761427323481, guid: 474729d155c8ab34a8188e171781b6db,
        type: 3}
    - target: {fileID: -3668181533897587454, guid: de90d1482f981294ead7a6f12304b49e,
        type: 3}
      propertyPath: subSpriteArray.Array.data[34]
      value: 
      objectReference: {fileID: 2398990757959868072, guid: 474729d155c8ab34a8188e171781b6db,
        type: 3}
    - target: {fileID: -3668181533897587454, guid: de90d1482f981294ead7a6f12304b49e,
        type: 3}
      propertyPath: subSpriteArray.Array.data[35]
      value: 
      objectReference: {fileID: -3283303229865360016, guid: 474729d155c8ab34a8188e171781b6db,
        type: 3}
    - target: {fileID: -3668181533897587454, guid: de90d1482f981294ead7a6f12304b49e,
        type: 3}
      propertyPath: subSpriteArray.Array.data[36]
      value: 
      objectReference: {fileID: -509647749852281986, guid: 474729d155c8ab34a8188e171781b6db,
        type: 3}
    - target: {fileID: -3668181533897587454, guid: de90d1482f981294ead7a6f12304b49e,
        type: 3}
      propertyPath: subSpriteArray.Array.data[37]
      value: 
      objectReference: {fileID: -3961067769279519117, guid: 474729d155c8ab34a8188e171781b6db,
        type: 3}
    - target: {fileID: -3668181533897587454, guid: de90d1482f981294ead7a6f12304b49e,
        type: 3}
      propertyPath: subSpriteArray.Array.data[38]
      value: 
      objectReference: {fileID: 5206241339161912962, guid: 474729d155c8ab34a8188e171781b6db,
        type: 3}
    - target: {fileID: -3668181533897587454, guid: de90d1482f981294ead7a6f12304b49e,
        type: 3}
      propertyPath: subSpriteArray.Array.data[39]
      value: 
      objectReference: {fileID: 3272860909972907227, guid: 474729d155c8ab34a8188e171781b6db,
        type: 3}
    - target: {fileID: -3668181533897587454, guid: de90d1482f981294ead7a6f12304b49e,
        type: 3}
      propertyPath: subSpriteArray.Array.data[40]
      value: 
      objectReference: {fileID: 4103212083353984301, guid: 474729d155c8ab34a8188e171781b6db,
        type: 3}
    - target: {fileID: -3668181533897587454, guid: de90d1482f981294ead7a6f12304b49e,
        type: 3}
      propertyPath: subSpriteArray.Array.data[41]
      value: 
      objectReference: {fileID: 8814497212656758011, guid: 474729d155c8ab34a8188e171781b6db,
        type: 3}
    - target: {fileID: -3668181533897587454, guid: de90d1482f981294ead7a6f12304b49e,
        type: 3}
      propertyPath: subSpriteArray.Array.data[42]
      value: 
      objectReference: {fileID: -195650947292680383, guid: 474729d155c8ab34a8188e171781b6db,
        type: 3}
    - target: {fileID: -3668181533897587454, guid: de90d1482f981294ead7a6f12304b49e,
        type: 3}
      propertyPath: subSpriteArray.Array.data[43]
      value: 
      objectReference: {fileID: 3834184821057005881, guid: 474729d155c8ab34a8188e171781b6db,
        type: 3}
    - target: {fileID: -3668181533897587454, guid: de90d1482f981294ead7a6f12304b49e,
        type: 3}
      propertyPath: subSpriteArray.Array.data[44]
      value: 
      objectReference: {fileID: 6843545144567050327, guid: 474729d155c8ab34a8188e171781b6db,
        type: 3}
    - target: {fileID: -3668181533897587454, guid: de90d1482f981294ead7a6f12304b49e,
        type: 3}
      propertyPath: subSpriteArray.Array.data[45]
      value: 
      objectReference: {fileID: -7645670916415914677, guid: 474729d155c8ab34a8188e171781b6db,
        type: 3}
    - target: {fileID: -3668181533897587454, guid: de90d1482f981294ead7a6f12304b49e,
        type: 3}
      propertyPath: subSpriteArray.Array.data[46]
      value: 
      objectReference: {fileID: 8391340957817016901, guid: 474729d155c8ab34a8188e171781b6db,
        type: 3}
    - target: {fileID: -3668181533897587454, guid: de90d1482f981294ead7a6f12304b49e,
        type: 3}
      propertyPath: subSpriteArray.Array.data[47]
      value: 
      objectReference: {fileID: -5646397697296040562, guid: 474729d155c8ab34a8188e171781b6db,
        type: 3}
    - target: {fileID: -3668181533897587454, guid: de90d1482f981294ead7a6f12304b49e,
        type: 3}
      propertyPath: m_Enabled
      value: 0
      objectReference: {fileID: 0}
    - target: {fileID: -2418206169763106511, guid: de90d1482f981294ead7a6f12304b49e,
        type: 3}
      propertyPath: m_AssetId
      value: 
      objectReference: {fileID: 0}
    - target: {fileID: 3054138261829233285, guid: de90d1482f981294ead7a6f12304b49e,
        type: 3}
      propertyPath: m_Sprite
      value: 
      objectReference: {fileID: 21300000, guid: 3016ce2d5bd75a147aa3a66460e33058,
        type: 3}
    - target: {fileID: 3081360652092189902, guid: de90d1482f981294ead7a6f12304b49e,
        type: 3}
      propertyPath: m_Materials.Array.data[0]
      value: 
      objectReference: {fileID: 0}
    - target: {fileID: 3081360652092189902, guid: de90d1482f981294ead7a6f12304b49e,
        type: 3}
      propertyPath: m_Sprite
      value: 
      objectReference: {fileID: 0}
    - target: {fileID: 3081360652092189902, guid: de90d1482f981294ead7a6f12304b49e,
        type: 3}
      propertyPath: m_WasSpriteAssigned
      value: 0
      objectReference: {fileID: 0}
    - target: {fileID: 3081360652092189902, guid: de90d1482f981294ead7a6f12304b49e,
        type: 3}
      propertyPath: m_Size.x
      value: 0.66
      objectReference: {fileID: 0}
    - target: {fileID: 3081360652092189902, guid: de90d1482f981294ead7a6f12304b49e,
        type: 3}
      propertyPath: m_Size.y
      value: 0.66
      objectReference: {fileID: 0}
    - target: {fileID: 3583395042461223185, guid: de90d1482f981294ead7a6f12304b49e,
        type: 3}
      propertyPath: m_LocalPosition.y
      value: -0.575
      objectReference: {fileID: 0}
    - target: {fileID: 3583395042461223185, guid: de90d1482f981294ead7a6f12304b49e,
        type: 3}
      propertyPath: m_LocalPosition.x
      value: 0.15
      objectReference: {fileID: 0}
    - target: {fileID: 4343475698856748242, guid: de90d1482f981294ead7a6f12304b49e,
        type: 3}
      propertyPath: m_Sprite
      value: 
      objectReference: {fileID: 2740824752132533967, guid: 474729d155c8ab34a8188e171781b6db,
        type: 3}
    - target: {fileID: 4544004509230762525, guid: de90d1482f981294ead7a6f12304b49e,
        type: 3}
      propertyPath: m_LocalPosition.x
      value: 0
      objectReference: {fileID: 0}
    - target: {fileID: 4544004509230762525, guid: de90d1482f981294ead7a6f12304b49e,
        type: 3}
      propertyPath: m_LocalPosition.y
      value: 0
      objectReference: {fileID: 0}
    - target: {fileID: 4544004509230762525, guid: de90d1482f981294ead7a6f12304b49e,
        type: 3}
      propertyPath: m_LocalPosition.z
      value: 0
      objectReference: {fileID: 0}
    - target: {fileID: 4544004509230762525, guid: de90d1482f981294ead7a6f12304b49e,
        type: 3}
      propertyPath: m_LocalRotation.x
      value: 0
      objectReference: {fileID: 0}
    - target: {fileID: 4544004509230762525, guid: de90d1482f981294ead7a6f12304b49e,
        type: 3}
      propertyPath: m_LocalRotation.y
      value: 0
      objectReference: {fileID: 0}
    - target: {fileID: 4544004509230762525, guid: de90d1482f981294ead7a6f12304b49e,
        type: 3}
      propertyPath: m_LocalRotation.z
      value: 0
      objectReference: {fileID: 0}
    - target: {fileID: 4544004509230762525, guid: de90d1482f981294ead7a6f12304b49e,
        type: 3}
      propertyPath: m_LocalRotation.w
      value: 1
      objectReference: {fileID: 0}
    - target: {fileID: 4544004509230762525, guid: de90d1482f981294ead7a6f12304b49e,
        type: 3}
      propertyPath: m_RootOrder
      value: 0
      objectReference: {fileID: 0}
    - target: {fileID: 4544004509230762525, guid: de90d1482f981294ead7a6f12304b49e,
        type: 3}
      propertyPath: m_LocalEulerAnglesHint.x
      value: 0
      objectReference: {fileID: 0}
    - target: {fileID: 4544004509230762525, guid: de90d1482f981294ead7a6f12304b49e,
        type: 3}
      propertyPath: m_LocalEulerAnglesHint.y
      value: 0
      objectReference: {fileID: 0}
    - target: {fileID: 4544004509230762525, guid: de90d1482f981294ead7a6f12304b49e,
        type: 3}
      propertyPath: m_LocalEulerAnglesHint.z
      value: 0
      objectReference: {fileID: 0}
    - target: {fileID: 4960269782036483640, guid: de90d1482f981294ead7a6f12304b49e,
        type: 3}
      propertyPath: m_LocalScale.x
      value: 0.3082
      objectReference: {fileID: 0}
    - target: {fileID: 4960269782036483640, guid: de90d1482f981294ead7a6f12304b49e,
        type: 3}
      propertyPath: m_LocalScale.y
      value: 0.3082
      objectReference: {fileID: 0}
    - target: {fileID: 4960269782036483640, guid: de90d1482f981294ead7a6f12304b49e,
        type: 3}
      propertyPath: m_LocalScale.z
      value: 0.3082
      objectReference: {fileID: 0}
    - target: {fileID: 4960269782036483640, guid: de90d1482f981294ead7a6f12304b49e,
        type: 3}
      propertyPath: m_LocalPosition.x
      value: 0.159
      objectReference: {fileID: 0}
    - target: {fileID: 4960269782036483640, guid: de90d1482f981294ead7a6f12304b49e,
        type: 3}
      propertyPath: m_LocalPosition.y
      value: 0.097
      objectReference: {fileID: 0}
    - target: {fileID: 5274435914260745318, guid: de90d1482f981294ead7a6f12304b49e,
        type: 3}
      propertyPath: m_LocalPosition.x
      value: 0.15
      objectReference: {fileID: 0}
    - target: {fileID: 5274435914260745318, guid: de90d1482f981294ead7a6f12304b49e,
        type: 3}
      propertyPath: m_LocalPosition.y
      value: -0.15
      objectReference: {fileID: 0}
    - target: {fileID: 6304300871366721750, guid: de90d1482f981294ead7a6f12304b49e,
        type: 3}
      propertyPath: m_Materials.Array.data[0]
      value: 
      objectReference: {fileID: 0}
    - target: {fileID: 6304300871366721750, guid: de90d1482f981294ead7a6f12304b49e,
        type: 3}
      propertyPath: m_Sprite
      value: 
      objectReference: {fileID: 0}
    - target: {fileID: 6304300871366721750, guid: de90d1482f981294ead7a6f12304b49e,
        type: 3}
      propertyPath: m_WasSpriteAssigned
      value: 0
      objectReference: {fileID: 0}
    - target: {fileID: 6304300871366721750, guid: de90d1482f981294ead7a6f12304b49e,
        type: 3}
      propertyPath: m_Size.x
      value: 0.87
      objectReference: {fileID: 0}
    - target: {fileID: 6304300871366721750, guid: de90d1482f981294ead7a6f12304b49e,
        type: 3}
      propertyPath: m_Size.y
      value: 0.87
      objectReference: {fileID: 0}
    - target: {fileID: 6524891404889324934, guid: de90d1482f981294ead7a6f12304b49e,
        type: 3}
      propertyPath: m_Name
      value: Secrets Game Variant Boulder
      objectReference: {fileID: 0}
    - target: {fileID: 7340472739673472265, guid: de90d1482f981294ead7a6f12304b49e,
        type: 3}
      propertyPath: m_IsActive
      value: 0
      objectReference: {fileID: 0}
    - target: {fileID: 7343906921171898986, guid: de90d1482f981294ead7a6f12304b49e,
        type: 3}
      propertyPath: m_IsActive
      value: 1
      objectReference: {fileID: 0}
    - target: {fileID: 7932772879712666477, guid: de90d1482f981294ead7a6f12304b49e,
        type: 3}
      propertyPath: m_LocalScale.x
      value: 0.67818
      objectReference: {fileID: 0}
    - target: {fileID: 7932772879712666477, guid: de90d1482f981294ead7a6f12304b49e,
        type: 3}
      propertyPath: m_LocalScale.y
      value: 0.67818
      objectReference: {fileID: 0}
    - target: {fileID: 7932772879712666477, guid: de90d1482f981294ead7a6f12304b49e,
        type: 3}
      propertyPath: m_LocalScale.z
      value: 0.67818
      objectReference: {fileID: 0}
    - target: {fileID: 7932772879712666477, guid: de90d1482f981294ead7a6f12304b49e,
        type: 3}
      propertyPath: m_LocalPosition.x
      value: 0.147
      objectReference: {fileID: 0}
    - target: {fileID: 7932772879712666477, guid: de90d1482f981294ead7a6f12304b49e,
        type: 3}
      propertyPath: m_LocalPosition.y
      value: -0.048
      objectReference: {fileID: 0}
    - target: {fileID: 8424702150825978741, guid: de90d1482f981294ead7a6f12304b49e,
        type: 3}
      propertyPath: m_AnchoredPosition.x
      value: 0.148
      objectReference: {fileID: 0}
    - target: {fileID: 8424702150825978741, guid: de90d1482f981294ead7a6f12304b49e,
        type: 3}
      propertyPath: m_AnchoredPosition.y
      value: -0.113
      objectReference: {fileID: 0}
    m_RemovedComponents: []
  m_SourcePrefab: {fileID: 100100000, guid: de90d1482f981294ead7a6f12304b49e, type: 3}
