%YAML 1.1
%TAG !u! tag:unity3d.com,2011:
--- !u!1 &3826546916544044219
GameObject:
  m_ObjectHideFlags: 0
  m_CorrespondingSourceObject: {fileID: 0}
  m_PrefabInstance: {fileID: 0}
  m_PrefabAsset: {fileID: 0}
  serializedVersion: 6
  m_Component:
  - component: {fileID: 3826546916544044215}
  - component: {fileID: 3826546916544044214}
  - component: {fileID: 3826546916544044213}
  - component: {fileID: 3826546916544044212}
  m_Layer: 0
  m_Name: Server Networking Manager
  m_TagString: Untagged
  m_Icon: {fileID: 0}
  m_NavMeshLayer: 0
  m_StaticEditorFlags: 0
  m_IsActive: 1
--- !u!4 &3826546916544044215
Transform:
  m_ObjectHideFlags: 0
  m_CorrespondingSourceObject: {fileID: 0}
  m_PrefabInstance: {fileID: 0}
  m_PrefabAsset: {fileID: 0}
  m_GameObject: {fileID: 3826546916544044219}
  m_LocalRotation: {x: 0, y: 0, z: 0, w: 1}
  m_LocalPosition: {x: 0, y: 0, z: 0}
  m_LocalScale: {x: 1, y: 1, z: 1}
  m_Children: []
  m_Father: {fileID: 0}
  m_RootOrder: 0
  m_LocalEulerAnglesHint: {x: 0, y: 0, z: 0}
--- !u!114 &3826546916544044214
MonoBehaviour:
  m_ObjectHideFlags: 0
  m_CorrespondingSourceObject: {fileID: 0}
  m_PrefabInstance: {fileID: 0}
  m_PrefabAsset: {fileID: 0}
  m_GameObject: {fileID: 3826546916544044219}
  m_Enabled: 1
  m_EditorHideFlags: 0
  m_Script: {fileID: 1682170820, guid: 01701b64234b4d523d8045142cbc73fa, type: 3}
  m_Name: 
  m_EditorClassIdentifier: 
  DontDestroy: 1
  RunInBackground: 1
  LogLevel: 1
  NetworkConfig:
    ProtocolVersion: 0
    NetworkTransport: {fileID: 3826546916544044213}
    RegisteredScenes:
    - Main
    AllowRuntimeSceneChanges: 0
    NetworkedPrefabs:
    - Prefab: {fileID: 533490015269906485, guid: 6f3883887b89747fd8e49656af42f491,
        type: 3}
      PlayerPrefab: 1
    PlayerPrefabHash:
      Value: 9332763011717747511
    CreatePlayerPrefab: 1
    ReceiveTickrate: 64
    MaxReceiveEventsPerTickRate: 500
    EventTickrate: 64
    MaxObjectUpdatesPerTick: -1
    ClientConnectionBufferTimeout: 10
    ConnectionApproval: 0
    ConnectionData: 
    SecondsHistory: 5
    EnableTimeResync: 0
    TimeResyncInterval: 30
    EnableNetworkedVar: 1
    EnsureNetworkedVarLengthSafety: 0
    EnableSceneManagement: 1
    ForceSamePrefabs: 1
    UsePrefabSync: 0
    RecycleNetworkIds: 1
    NetworkIdRecycleDelay: 120
    RpcHashSize: 0
    LoadSceneTimeOut: 120
    EnableMessageBuffering: 1
    MessageBufferTimeout: 20
    EnableNetworkLogs: 1
    EnableEncryption: 0
    SignKeyExchange: 0
    ServerBase64PfxCertificate: 
--- !u!114 &3826546916544044213
MonoBehaviour:
  m_ObjectHideFlags: 0
  m_CorrespondingSourceObject: {fileID: 0}
  m_PrefabInstance: {fileID: 0}
  m_PrefabAsset: {fileID: 0}
  m_GameObject: {fileID: 3826546916544044219}
  m_Enabled: 1
  m_EditorHideFlags: 0
  m_Script: {fileID: 1554712238, guid: 01701b64234b4d523d8045142cbc73fa, type: 3}
  m_Name: 
  m_EditorClassIdentifier: 
  MessageBufferSize: 5120
  MaxConnections: 100
  ConnectAddress: 127.0.0.1
  ConnectPort: 7500
  ServerListenPort: 7500
  ServerWebsocketListenPort: 8887
  SupportWebsocket: 0
  Channels:
  - Name: Fragmented
    Type: 4
  UseMLAPIRelay: 0
  MLAPIRelayAddress: 184.72.104.138
  MLAPIRelayPort: 8888
--- !u!114 &3826546916544044212
MonoBehaviour:
  m_ObjectHideFlags: 0
  m_CorrespondingSourceObject: {fileID: 0}
  m_PrefabInstance: {fileID: 0}
  m_PrefabAsset: {fileID: 0}
  m_GameObject: {fileID: 3826546916544044219}
  m_Enabled: 1
  m_EditorHideFlags: 0
  m_Script: {fileID: 11500000, guid: 0c0fab1ff914248c8aa1184437291fe9, type: 3}
  m_Name: 
  m_EditorClassIdentifier: 
  server: {fileID: 0}
