%YAML 1.1
%TAG !u! tag:unity3d.com,2011:
--- !u!114 &11400000
MonoBehaviour:
  m_ObjectHideFlags: 0
  m_CorrespondingSourceObject: {fileID: 0}
  m_PrefabInstance: {fileID: 0}
  m_PrefabAsset: {fileID: 0}
  m_GameObject: {fileID: 0}
  m_Enabled: 1
  m_EditorHideFlags: 0
  m_Script: {fileID: 11500000, guid: 06584b92dc14fd140a7ede7671ce69d7, type: 3}
  m_Name: HatClipMaskGenerationSettings
  m_EditorClassIdentifier: 
  values:
  - isEnabled: 1
    texture: {fileID: 2800000, guid: d484f658b793799498ad43b84732b638, type: 3}
    extraClipMaskTexture: {fileID: 2800000, guid: 25e6d70db6c99e9428902a62010faf07,
      type: 3}
    paintedClipMaskTexture: {fileID: 2800000, guid: 6bc539ada1769ae429b142071cb42dcf,
      type: 3}
  - isEnabled: 1
    texture: {fileID: 2800000, guid: 7a16f05493b17b448a361c5fd60c3f6d, type: 3}
    extraClipMaskTexture: {fileID: 2800000, guid: 5dc82cbe0b3ec14449b6c582f5e97987,
      type: 3}
    paintedClipMaskTexture: {fileID: 0}
  - isEnabled: 1
    texture: {fileID: 2800000, guid: d8b7ccf5eaa675047b71c565c2d08d10, type: 3}
    extraClipMaskTexture: {fileID: 2800000, guid: a914f340f3a2c7548bcf36698bce471f,
      type: 3}
    paintedClipMaskTexture: {fileID: 0}
  - isEnabled: 1
    texture: {fileID: 2800000, guid: b51f269dde2926447a7dede3bb4bb945, type: 3}
    extraClipMaskTexture: {fileID: 2800000, guid: fd977cbd81dae464495eb35e4a9d7b86,
      type: 3}
    paintedClipMaskTexture: {fileID: 0}
  - isEnabled: 1
    texture: {fileID: 2800000, guid: 5075c1b932f8be24e86e1c5dc501b304, type: 3}
    extraClipMaskTexture: {fileID: 2800000, guid: e0948734c9b01cd46b769857fd296a07,
      type: 3}
    paintedClipMaskTexture: {fileID: 0}
  - isEnabled: 1
    texture: {fileID: 2800000, guid: a514b4f4da23abc49805297bea5d314d, type: 3}
    extraClipMaskTexture: {fileID: 2800000, guid: 12e36761161177c4cbbd681d7dddb408,
      type: 3}
    paintedClipMaskTexture: {fileID: 0}
