%YAML 1.1
%TAG !u! tag:unity3d.com,2011:
--- !u!114 &11400000
MonoBehaviour:
  m_ObjectHideFlags: 0
  m_CorrespondingSourceObject: {fileID: 0}
  m_PrefabInstance: {fileID: 0}
  m_PrefabAsset: {fileID: 0}
  m_GameObject: {fileID: 0}
  m_Enabled: 1
  m_EditorHideFlags: 0
  m_Script: {fileID: 11500000, guid: b531e5079cdf8f84d91fee106a1b011d, type: 3}
  m_Name: KneelingS
  m_EditorClassIdentifier: 
  isLooping: 1
  frames:
  - index: 45
    type: 1
    duration: 1
