%YAML 1.1
%TAG !u! tag:unity3d.com,2011:
--- !u!1 &4189535125868929270
GameObject:
  m_ObjectHideFlags: 0
  m_CorrespondingSourceObject: {fileID: 0}
  m_PrefabInstance: {fileID: 0}
  m_PrefabAsset: {fileID: 0}
  serializedVersion: 6
  m_Component:
  - component: {fileID: 4318040959987005689}
  - component: {fileID: 4880875372698174798}
  - component: {fileID: 7393802209197195774}
  m_Layer: 0
  m_Name: Random Enemy Spawner
  m_TagString: Untagged
  m_Icon: {fileID: 0}
  m_NavMeshLayer: 0
  m_StaticEditorFlags: 0
  m_IsActive: 1
--- !u!4 &4318040959987005689
Transform:
  m_ObjectHideFlags: 0
  m_CorrespondingSourceObject: {fileID: 0}
  m_PrefabInstance: {fileID: 0}
  m_PrefabAsset: {fileID: 0}
  m_GameObject: {fileID: 4189535125868929270}
  m_LocalRotation: {x: 0, y: 0, z: 0, w: 1}
  m_LocalPosition: {x: 0, y: 0, z: 0}
  m_LocalScale: {x: 1, y: 1, z: 1}
  m_Children: []
  m_Father: {fileID: 0}
  m_RootOrder: 0
  m_LocalEulerAnglesHint: {x: 0, y: 0, z: 0}
--- !u!114 &4880875372698174798
MonoBehaviour:
  m_ObjectHideFlags: 0
  m_CorrespondingSourceObject: {fileID: 0}
  m_PrefabInstance: {fileID: 0}
  m_PrefabAsset: {fileID: 0}
  m_GameObject: {fileID: 4189535125868929270}
  m_Enabled: 1
  m_EditorHideFlags: 0
  m_Script: {fileID: 11500000, guid: ebc0e85d8400c5f499a873392cd8cab2, type: 3}
  m_Name: 
  m_EditorClassIdentifier: 
  forestBiomeEnemies: e4000000e5000000e6000000e7000000ee000000
  desertBiomeEnemies: db000000dc000000dd000000de000000df000000
  lavaBiomeEnemies: db000000dc000000de000000df000000dd000000
  snowBiomeEnemies: d6000000d7000000d8000000d9000000da000000e8000000
  pineBiomeEnemies: d0000000d1000000d2000000d3000000d4000000d5000000
  mushroomBiomeEnemies: e0000000e1000000e2000000e3000000
  respawnTimer: -1
--- !u!114 &7393802209197195774
MonoBehaviour:
  m_ObjectHideFlags: 0
  m_CorrespondingSourceObject: {fileID: 0}
  m_PrefabInstance: {fileID: 0}
  m_PrefabAsset: {fileID: 0}
  m_GameObject: {fileID: 4189535125868929270}
  m_Enabled: 1
  m_EditorHideFlags: 0
  m_Script: {fileID: 11500000, guid: 3e851007333b54a4190716c035b83695, type: 3}
  m_Name: 
  m_EditorClassIdentifier: 
  offsetZ: 0
  inheritedOffsetZ: 0
  isActive: 0
  sortPoint: {fileID: 0}
