%YAML 1.1
%TAG !u! tag:unity3d.com,2011:
--- !u!128 &12800000
Font:
  m_ObjectHideFlags: 0
  m_CorrespondingSourceObject: {fileID: 0}
  m_PrefabInstance: {fileID: 0}
  m_PrefabAsset: {fileID: 0}
  m_Name: PoisonCrit
  serializedVersion: 5
  m_LineSpacing: 0.1
  m_DefaultMaterial: {fileID: 2100000, guid: d5eeb5a815d10b9408ec1e17f43d70fd, type: 2}
  m_FontSize: 0
  m_Texture: {fileID: 0}
  m_AsciiStartOffset: 0
  m_Tracking: 1
  m_CharacterSpacing: 1
  m_CharacterPadding: 0
  m_ConvertCase: 0
  m_CharacterRects:
  - serializedVersion: 2
    index: 48
    uv:
      serializedVersion: 2
      x: 0
      y: -0.06666672
      width: 0.1
      height: 1.0666667
    vert:
      serializedVersion: 2
      x: 0
      y: -0
      width: 12
      height: -16
    advance: 12
    flipped: 0
  - serializedVersion: 2
    index: 49
    uv:
      serializedVersion: 2
      x: 0.11666667
      y: -0.06666672
      width: 0.06666667
      height: 1.0666667
    vert:
      serializedVersion: 2
      x: 0
      y: -0
      width: 8
      height: -16
    advance: 8
    flipped: 0
  - serializedVersion: 2
    index: 50
    uv:
      serializedVersion: 2
      x: 0.2
      y: -0.06666672
      width: 0.1
      height: 1.0666667
    vert:
      serializedVersion: 2
      x: 0
      y: -0
      width: 12
      height: -16
    advance: 12
    flipped: 0
  - serializedVersion: 2
    index: 51
    uv:
      serializedVersion: 2
      x: 0.3
      y: -0.06666672
      width: 0.1
      height: 1.0666667
    vert:
      serializedVersion: 2
      x: 0
      y: -0
      width: 12
      height: -16
    advance: 12
    flipped: 0
  - serializedVersion: 2
    index: 52
    uv:
      serializedVersion: 2
      x: 0.4
      y: -0.06666672
      width: 0.1
      height: 1.0666667
    vert:
      serializedVersion: 2
      x: 0
      y: -0
      width: 12
      height: -16
    advance: 12
    flipped: 0
  - serializedVersion: 2
    index: 53
    uv:
      serializedVersion: 2
      x: 0.5
      y: -0.06666672
      width: 0.1
      height: 1.0666667
    vert:
      serializedVersion: 2
      x: 0
      y: -0
      width: 12
      height: -16
    advance: 12
    flipped: 0
  - serializedVersion: 2
    index: 54
    uv:
      serializedVersion: 2
      x: 0.6
      y: -0.06666672
      width: 0.1
      height: 1.0666667
    vert:
      serializedVersion: 2
      x: 0
      y: -0
      width: 12
      height: -16
    advance: 12
    flipped: 0
  - serializedVersion: 2
    index: 55
    uv:
      serializedVersion: 2
      x: 0.7
      y: -0.06666672
      width: 0.1
      height: 1.0666667
    vert:
      serializedVersion: 2
      x: 0
      y: -0
      width: 12
      height: -16
    advance: 12
    flipped: 0
  - serializedVersion: 2
    index: 56
    uv:
      serializedVersion: 2
      x: 0.8
      y: -0.06666672
      width: 0.1
      height: 1.0666667
    vert:
      serializedVersion: 2
      x: 0
      y: -0
      width: 12
      height: -16
    advance: 12
    flipped: 0
  - serializedVersion: 2
    index: 57
    uv:
      serializedVersion: 2
      x: 0.9
      y: -0.06666672
      width: 0.1
      height: 1.0666667
    vert:
      serializedVersion: 2
      x: 0
      y: -0
      width: 12
      height: -16
    advance: 12
    flipped: 0
  - serializedVersion: 2
    index: 32
    uv:
      serializedVersion: 2
      x: 0
      y: 1
      width: 0
      height: 0
    vert:
      serializedVersion: 2
      x: 3
      y: -0
      width: 0
      height: -0
    advance: 20
    flipped: 0
  m_KerningValues: []
  m_PixelScale: 0.1
  m_FontData: 
  m_Ascent: 0
  m_Descent: -0.1
  m_DefaultStyle: 0
  m_FontNames: []
  m_FallbackFonts: []
  m_FontRenderingMode: 0
  m_UseLegacyBoundsCalculation: 0
  m_ShouldRoundAdvanceValue: 1
