%YAML 1.1
%TAG !u! tag:unity3d.com,2011:
--- !u!1 &5393158174208898742
GameObject:
  m_ObjectHideFlags: 0
  m_CorrespondingSourceObject: {fileID: 0}
  m_PrefabInstance: {fileID: 0}
  m_PrefabAsset: {fileID: 0}
  serializedVersion: 6
  m_Component:
  - component: {fileID: 2421204457101181483}
  - component: {fileID: 8578360152740016040}
  m_Layer: 0
  m_Name: DottedCircle
  m_TagString: Untagged
  m_Icon: {fileID: 0}
  m_NavMeshLayer: 0
  m_StaticEditorFlags: 0
  m_IsActive: 1
--- !u!4 &2421204457101181483
Transform:
  m_ObjectHideFlags: 0
  m_CorrespondingSourceObject: {fileID: 0}
  m_PrefabInstance: {fileID: 0}
  m_PrefabAsset: {fileID: 0}
  m_GameObject: {fileID: 5393158174208898742}
  m_LocalRotation: {x: 0, y: 0, z: 0, w: 1}
  m_LocalPosition: {x: 0, y: 0, z: 0}
  m_LocalScale: {x: 1, y: 1, z: 1}
  m_Children: []
  m_Father: {fileID: 0}
  m_RootOrder: 0
  m_LocalEulerAnglesHint: {x: 0, y: 0, z: 0}
--- !u!114 &8578360152740016040
MonoBehaviour:
  m_ObjectHideFlags: 0
  m_CorrespondingSourceObject: {fileID: 0}
  m_PrefabInstance: {fileID: 0}
  m_PrefabAsset: {fileID: 0}
  m_GameObject: {fileID: 5393158174208898742}
  m_Enabled: 1
  m_EditorHideFlags: 0
  m_Script: {fileID: 11500000, guid: 3ddc3ad7eec5a774cb24ce1665a1b6c9, type: 3}
  m_Name: 
  m_EditorClassIdentifier: 
  circleRadius: 1
  numSegments: 4
  segmentPrefab: {fileID: 5334447297409641004, guid: 79718a50b0cbc4a46bc67c294871aaa6,
    type: 3}
  dotOverride: {fileID: 21300000, guid: 2c1e923ec5f0ced44b06d12e7eb1daba, type: 3}
  updateCircle: 0
  rotateSegmentSprites: 1
