%YAML 1.1
%TAG !u! tag:unity3d.com,2011:
--- !u!1001 &5629964404239087241
PrefabInstance:
  m_ObjectHideFlags: 0
  serializedVersion: 2
  m_Modification:
    m_TransformParent: {fileID: 0}
    m_Modifications:
    - target: {fileID: 191501393395664673, guid: 6b2e102290024e341b0bfe7f1b0e0c32,
        type: 3}
      propertyPath: _armorTypes.Array.size
      value: 16
      objectReference: {fileID: 0}
    - target: {fileID: 191501393395664673, guid: 6b2e102290024e341b0bfe7f1b0e0c32,
        type: 3}
      propertyPath: isGenderSpecific
      value: 1
      objectReference: {fileID: 0}
    - target: {fileID: 191501393395664673, guid: 6b2e102290024e341b0bfe7f1b0e0c32,
        type: 3}
      propertyPath: _armorTypes.Array.data[0]
      value: 1
      objectReference: {fileID: 0}
    - target: {fileID: 191501393395664673, guid: 6b2e102290024e341b0bfe7f1b0e0c32,
        type: 3}
      propertyPath: _armorTypes.Array.data[1]
      value: 2
      objectReference: {fileID: 0}
    - target: {fileID: 191501393395664673, guid: 6b2e102290024e341b0bfe7f1b0e0c32,
        type: 3}
      propertyPath: _armorTypes.Array.data[2]
      value: 3
      objectReference: {fileID: 0}
    - target: {fileID: 191501393395664673, guid: 6b2e102290024e341b0bfe7f1b0e0c32,
        type: 3}
      propertyPath: _armorTypes.Array.data[3]
      value: 4
      objectReference: {fileID: 0}
    - target: {fileID: 191501393395664673, guid: 6b2e102290024e341b0bfe7f1b0e0c32,
        type: 3}
      propertyPath: _armorTypes.Array.data[4]
      value: 5
      objectReference: {fileID: 0}
    - target: {fileID: 191501393395664673, guid: 6b2e102290024e341b0bfe7f1b0e0c32,
        type: 3}
      propertyPath: _armorTypes.Array.data[5]
      value: 6
      objectReference: {fileID: 0}
    - target: {fileID: 191501393395664673, guid: 6b2e102290024e341b0bfe7f1b0e0c32,
        type: 3}
      propertyPath: _armorTypes.Array.data[6]
      value: 7
      objectReference: {fileID: 0}
    - target: {fileID: 191501393395664673, guid: 6b2e102290024e341b0bfe7f1b0e0c32,
        type: 3}
      propertyPath: _armorTypes.Array.data[7]
      value: 8
      objectReference: {fileID: 0}
    - target: {fileID: 191501393395664673, guid: 6b2e102290024e341b0bfe7f1b0e0c32,
        type: 3}
      propertyPath: _armorTypes.Array.data[8]
      value: 9
      objectReference: {fileID: 0}
    - target: {fileID: 191501393395664673, guid: 6b2e102290024e341b0bfe7f1b0e0c32,
        type: 3}
      propertyPath: _armorTypes.Array.data[9]
      value: 10
      objectReference: {fileID: 0}
    - target: {fileID: 191501393395664673, guid: 6b2e102290024e341b0bfe7f1b0e0c32,
        type: 3}
      propertyPath: _armorTypes.Array.data[10]
      value: 11
      objectReference: {fileID: 0}
    - target: {fileID: 191501393395664673, guid: 6b2e102290024e341b0bfe7f1b0e0c32,
        type: 3}
      propertyPath: _armorTypes.Array.data[11]
      value: 12
      objectReference: {fileID: 0}
    - target: {fileID: 191501393395664673, guid: 6b2e102290024e341b0bfe7f1b0e0c32,
        type: 3}
      propertyPath: _armorTypes.Array.data[12]
      value: 13
      objectReference: {fileID: 0}
    - target: {fileID: 191501393395664673, guid: 6b2e102290024e341b0bfe7f1b0e0c32,
        type: 3}
      propertyPath: _armorTypes.Array.data[13]
      value: 14
      objectReference: {fileID: 0}
    - target: {fileID: 191501393395664673, guid: 6b2e102290024e341b0bfe7f1b0e0c32,
        type: 3}
      propertyPath: _armorTypes.Array.data[14]
      value: 15
      objectReference: {fileID: 0}
    - target: {fileID: 191501393395664673, guid: 6b2e102290024e341b0bfe7f1b0e0c32,
        type: 3}
      propertyPath: _armorTypes.Array.data[15]
      value: 16
      objectReference: {fileID: 0}
    - target: {fileID: 191501393395664673, guid: 6b2e102290024e341b0bfe7f1b0e0c32,
        type: 3}
      propertyPath: _spriteLayer
      value: 103
      objectReference: {fileID: 0}
    - target: {fileID: 191501393395664673, guid: 6b2e102290024e341b0bfe7f1b0e0c32,
        type: 3}
      propertyPath: _elementPrefab
      value: 
      objectReference: {fileID: 403577983461094963, guid: 9264b2eca71e79d4f99d63e7dc5f5605,
        type: 3}
    - target: {fileID: 751599921693024325, guid: 6b2e102290024e341b0bfe7f1b0e0c32,
        type: 3}
      propertyPath: m_Name
      value: Female Clothes Grid
      objectReference: {fileID: 0}
    - target: {fileID: 3731777848165551435, guid: 6b2e102290024e341b0bfe7f1b0e0c32,
        type: 3}
      propertyPath: m_LocalPosition.x
      value: 0
      objectReference: {fileID: 0}
    - target: {fileID: 3731777848165551435, guid: 6b2e102290024e341b0bfe7f1b0e0c32,
        type: 3}
      propertyPath: m_LocalPosition.y
      value: 0
      objectReference: {fileID: 0}
    - target: {fileID: 3731777848165551435, guid: 6b2e102290024e341b0bfe7f1b0e0c32,
        type: 3}
      propertyPath: m_LocalPosition.z
      value: 0
      objectReference: {fileID: 0}
    - target: {fileID: 3731777848165551435, guid: 6b2e102290024e341b0bfe7f1b0e0c32,
        type: 3}
      propertyPath: m_LocalRotation.x
      value: -0
      objectReference: {fileID: 0}
    - target: {fileID: 3731777848165551435, guid: 6b2e102290024e341b0bfe7f1b0e0c32,
        type: 3}
      propertyPath: m_LocalRotation.y
      value: -0
      objectReference: {fileID: 0}
    - target: {fileID: 3731777848165551435, guid: 6b2e102290024e341b0bfe7f1b0e0c32,
        type: 3}
      propertyPath: m_LocalRotation.z
      value: -0
      objectReference: {fileID: 0}
    - target: {fileID: 3731777848165551435, guid: 6b2e102290024e341b0bfe7f1b0e0c32,
        type: 3}
      propertyPath: m_LocalRotation.w
      value: 1
      objectReference: {fileID: 0}
    - target: {fileID: 3731777848165551435, guid: 6b2e102290024e341b0bfe7f1b0e0c32,
        type: 3}
      propertyPath: m_RootOrder
      value: 0
      objectReference: {fileID: 0}
    - target: {fileID: 3731777848165551435, guid: 6b2e102290024e341b0bfe7f1b0e0c32,
        type: 3}
      propertyPath: m_LocalEulerAnglesHint.x
      value: 0
      objectReference: {fileID: 0}
    - target: {fileID: 3731777848165551435, guid: 6b2e102290024e341b0bfe7f1b0e0c32,
        type: 3}
      propertyPath: m_LocalEulerAnglesHint.y
      value: 0
      objectReference: {fileID: 0}
    - target: {fileID: 3731777848165551435, guid: 6b2e102290024e341b0bfe7f1b0e0c32,
        type: 3}
      propertyPath: m_LocalEulerAnglesHint.z
      value: 0
      objectReference: {fileID: 0}
    - target: {fileID: 3731777848165551435, guid: 6b2e102290024e341b0bfe7f1b0e0c32,
        type: 3}
      propertyPath: m_AnchoredPosition.x
      value: 0
      objectReference: {fileID: 0}
    - target: {fileID: 3731777848165551435, guid: 6b2e102290024e341b0bfe7f1b0e0c32,
        type: 3}
      propertyPath: m_AnchoredPosition.y
      value: -4.850006
      objectReference: {fileID: 0}
    - target: {fileID: 3731777848165551435, guid: 6b2e102290024e341b0bfe7f1b0e0c32,
        type: 3}
      propertyPath: m_SizeDelta.x
      value: 0
      objectReference: {fileID: 0}
    - target: {fileID: 3731777848165551435, guid: 6b2e102290024e341b0bfe7f1b0e0c32,
        type: 3}
      propertyPath: m_SizeDelta.y
      value: -34.700012
      objectReference: {fileID: 0}
    - target: {fileID: 3731777848165551435, guid: 6b2e102290024e341b0bfe7f1b0e0c32,
        type: 3}
      propertyPath: m_AnchorMin.x
      value: 0
      objectReference: {fileID: 0}
    - target: {fileID: 3731777848165551435, guid: 6b2e102290024e341b0bfe7f1b0e0c32,
        type: 3}
      propertyPath: m_AnchorMin.y
      value: 0
      objectReference: {fileID: 0}
    - target: {fileID: 3731777848165551435, guid: 6b2e102290024e341b0bfe7f1b0e0c32,
        type: 3}
      propertyPath: m_AnchorMax.x
      value: 1
      objectReference: {fileID: 0}
    - target: {fileID: 3731777848165551435, guid: 6b2e102290024e341b0bfe7f1b0e0c32,
        type: 3}
      propertyPath: m_AnchorMax.y
      value: 1
      objectReference: {fileID: 0}
    - target: {fileID: 3731777848165551435, guid: 6b2e102290024e341b0bfe7f1b0e0c32,
        type: 3}
      propertyPath: m_Pivot.x
      value: 0.5
      objectReference: {fileID: 0}
    - target: {fileID: 3731777848165551435, guid: 6b2e102290024e341b0bfe7f1b0e0c32,
        type: 3}
      propertyPath: m_Pivot.y
      value: 0.5
      objectReference: {fileID: 0}
    m_RemovedComponents: []
  m_SourcePrefab: {fileID: 100100000, guid: 6b2e102290024e341b0bfe7f1b0e0c32, type: 3}
