%YAML 1.1
%TAG !u! tag:unity3d.com,2011:
--- !u!114 &11400000
MonoBehaviour:
  m_ObjectHideFlags: 0
  m_CorrespondingSourceObject: {fileID: 0}
  m_PrefabInternal: {fileID: 0}
  m_GameObject: {fileID: 0}
  m_Enabled: 1
  m_EditorHideFlags: 0
  m_Script: {fileID: 11500000, guid: bc296b165eeac224abd9ab347da9eaba, type: 3}
  m_Name: water_228
  m_EditorClassIdentifier: 
  m_Sprite: {fileID: 21300456, guid: 9f8480c050207984e966150b40d27fae, type: 3}
  m_Color: {r: 1, g: 1, b: 1, a: 1}
  m_Transform:
    e00: 1
    e01: 0
    e02: 0
    e03: 0
    e10: 0
    e11: 1
    e12: 0
    e13: 0
    e20: 0
    e21: 0
    e22: 1
    e23: 0
    e30: 0
    e31: 0
    e32: 0
    e33: 1
  m_InstancedGameObject: {fileID: 0}
  m_Flags: 1
  m_ColliderType: 0
  m_AnimatedSprites:
  - {fileID: 21300456, guid: 9f8480c050207984e966150b40d27fae, type: 3}
  - {fileID: 21300462, guid: 9f8480c050207984e966150b40d27fae, type: 3}
  - {fileID: 21300468, guid: 9f8480c050207984e966150b40d27fae, type: 3}
  - {fileID: 21300474, guid: 9f8480c050207984e966150b40d27fae, type: 3}
  m_MinSpeed: 5
  m_MaxSpeed: 5
  m_AnimationStartTime: 0
